 -1.0000000e+001	  2.1557483e+004	
 -9.9900000e+000	  1.8558747e+004	
 -9.9800000e+000	  2.1740561e+004	
 -9.9700000e+000	  1.9938937e+004	
 -9.9600000e+000	  1.7515305e+004	
 -9.9500000e+000	  2.0309882e+004	
 -9.9400000e+000	  1.7298968e+004	
 -9.9300000e+000	  1.9787052e+004	
 -9.9200000e+000	  2.1618877e+004	
 -9.9100000e+000	  1.9123525e+004	
 -9.9000000e+000	  1.9698943e+004	
 -9.8900000e+000	  1.9807383e+004	
 -9.8800000e+000	  1.8682187e+004	
 -9.8700000e+000	  1.9800594e+004	
 -9.8600000e+000	  1.8528427e+004	
 -9.8500000e+000	  1.9705223e+004	
 -9.8400000e+000	  1.7752382e+004	
 -9.8300000e+000	  1.8744749e+004	
 -9.8200000e+000	  1.8307874e+004	
 -9.8100000e+000	  1.7744432e+004	
 -9.8000000e+000	  1.8535919e+004	
 -9.7900000e+000	  1.6898509e+004	
 -9.7800000e+000	  1.6657438e+004	
 -9.7700000e+000	  1.6769232e+004	
 -9.7600000e+000	  1.7344646e+004	
 -9.7500000e+000	  1.8916335e+004	
 -9.7400000e+000	  1.8049565e+004	
 -9.7300000e+000	  1.9173876e+004	
 -9.7200000e+000	  1.8839432e+004	
 -9.7100000e+000	  1.7297867e+004	
 -9.7000000e+000	  1.6345061e+004	
 -9.6900000e+000	  1.7660673e+004	
 -9.6800000e+000	  1.7212471e+004	
 -9.6700000e+000	  1.8711954e+004	
 -9.6600000e+000	  1.6681953e+004	
 -9.6500000e+000	  1.8923152e+004	
 -9.6400000e+000	  1.7526079e+004	
 -9.6300000e+000	  1.7664657e+004	
 -9.6200000e+000	  1.6413898e+004	
 -9.6100000e+000	  1.6041978e+004	
 -9.6000000e+000	  1.6810903e+004	
 -9.5900000e+000	  1.6937557e+004	
 -9.5800000e+000	  1.5384912e+004	
 -9.5700000e+000	  1.6886033e+004	
 -9.5600000e+000	  1.5936924e+004	
 -9.5500000e+000	  1.7057143e+004	
 -9.5400000e+000	  1.7542485e+004	
 -9.5300000e+000	  1.4605954e+004	
 -9.5200000e+000	  1.5702116e+004	
 -9.5100000e+000	  1.6087758e+004	
 -9.5000000e+000	  1.4038553e+004	
 -9.4900000e+000	  1.3627496e+004	
 -9.4800000e+000	  1.4459852e+004	
 -9.4700000e+000	  1.6980728e+004	
 -9.4600000e+000	  1.7636101e+004	
 -9.4500000e+000	  1.5311982e+004	
 -9.4400000e+000	  1.5430913e+004	
 -9.4300000e+000	  1.5993005e+004	
 -9.4200000e+000	  1.6562767e+004	
 -9.4100000e+000	  1.6561370e+004	
 -9.4000000e+000	  1.8120939e+004	
 -9.3900000e+000	  1.6021426e+004	
 -9.3800000e+000	  1.4314528e+004	
 -9.3700000e+000	  1.7735240e+004	
 -9.3600000e+000	  1.4353027e+004	
 -9.3500000e+000	  1.4580400e+004	
 -9.3400000e+000	  1.6127264e+004	
 -9.3300000e+000	  1.5330560e+004	
 -9.3200000e+000	  1.5158397e+004	
 -9.3100000e+000	  1.5031409e+004	
 -9.3000000e+000	  1.3621463e+004	
 -9.2900000e+000	  1.3611344e+004	
 -9.2800000e+000	  1.3156235e+004	
 -9.2700000e+000	  1.5524795e+004	
 -9.2600000e+000	  1.3809533e+004	
 -9.2500000e+000	  1.2907242e+004	
 -9.2400000e+000	  1.5055219e+004	
 -9.2300000e+000	  1.4261691e+004	
 -9.2200000e+000	  1.3149699e+004	
 -9.2100000e+000	  1.4680516e+004	
 -9.2000000e+000	  1.4767523e+004	
 -9.1900000e+000	  1.4769059e+004	
 -9.1800000e+000	  1.3593615e+004	
 -9.1700000e+000	  1.3787950e+004	
 -9.1600000e+000	  1.3648200e+004	
 -9.1500000e+000	  1.4183393e+004	
 -9.1400000e+000	  1.4468227e+004	
 -9.1300000e+000	  1.5539507e+004	
 -9.1200000e+000	  1.3220836e+004	
 -9.1100000e+000	  1.3146706e+004	
 -9.1000000e+000	  1.3538434e+004	
 -9.0900000e+000	  1.4816060e+004	
 -9.0800000e+000	  1.3196350e+004	
 -9.0700000e+000	  1.4463383e+004	
 -9.0600000e+000	  1.2739809e+004	
 -9.0500000e+000	  1.2560044e+004	
 -9.0400000e+000	  1.5169951e+004	
 -9.0300000e+000	  1.4158186e+004	
 -9.0200000e+000	  1.3806854e+004	
 -9.0100000e+000	  1.3187059e+004	
 -9.0000000e+000	  1.2522213e+004	
 -8.9900000e+000	  1.4239008e+004	
 -8.9800000e+000	  1.4137004e+004	
 -8.9700000e+000	  1.1185998e+004	
 -8.9600000e+000	  1.1738435e+004	
 -8.9500000e+000	  1.2464528e+004	
 -8.9400000e+000	  1.4259702e+004	
 -8.9300000e+000	  1.3109595e+004	
 -8.9200000e+000	  1.3969277e+004	
 -8.9100000e+000	  1.2027762e+004	
 -8.9000000e+000	  1.3025548e+004	
 -8.8900000e+000	  1.1870622e+004	
 -8.8800000e+000	  1.0560889e+004	
 -8.8700000e+000	  1.2687895e+004	
 -8.8600000e+000	  1.2363420e+004	
 -8.8500000e+000	  1.1507123e+004	
 -8.8400000e+000	  1.1663555e+004	
 -8.8300000e+000	  1.1378858e+004	
 -8.8200000e+000	  1.2623778e+004	
 -8.8100000e+000	  1.1007717e+004	
 -8.8000000e+000	  1.2585772e+004	
 -8.7900000e+000	  1.1647874e+004	
 -8.7800000e+000	  1.1649063e+004	
 -8.7700000e+000	  1.0954409e+004	
 -8.7600000e+000	  1.0940502e+004	
 -8.7500000e+000	  1.1050687e+004	
 -8.7400000e+000	  1.0750436e+004	
 -8.7300000e+000	  1.0910390e+004	
 -8.7200000e+000	  1.0921624e+004	
 -8.7100000e+000	  9.9909856e+003	
 -8.7000000e+000	  9.7125583e+003	
 -8.6900000e+000	  8.2764561e+003	
 -8.6800000e+000	  1.1898642e+004	
 -8.6700000e+000	  1.0325999e+004	
 -8.6600000e+000	  1.1469690e+004	
 -8.6500000e+000	  1.0802592e+004	
 -8.6400000e+000	  1.1982967e+004	
 -8.6300000e+000	  1.1473021e+004	
 -8.6200000e+000	  1.2521886e+004	
 -8.6100000e+000	  1.1229311e+004	
 -8.6000000e+000	  1.1479146e+004	
 -8.5900000e+000	  1.0510637e+004	
 -8.5800000e+000	  9.9240718e+003	
 -8.5700000e+000	  9.0640814e+003	
 -8.5600000e+000	  9.3667865e+003	
 -8.5500000e+000	  1.2448694e+004	
 -8.5400000e+000	  9.3397904e+003	
 -8.5300000e+000	  1.1100319e+004	
 -8.5200000e+000	  1.0606990e+004	
 -8.5100000e+000	  1.1178766e+004	
 -8.5000000e+000	  1.0216344e+004	
 -8.4900000e+000	  1.0117352e+004	
 -8.4800000e+000	  1.0972264e+004	
 -8.4700000e+000	  9.9767813e+003	
 -8.4600000e+000	  1.0486640e+004	
 -8.4500000e+000	  1.1613503e+004	
 -8.4400000e+000	  1.0767542e+004	
 -8.4300000e+000	  9.5056899e+003	
 -8.4200000e+000	  9.7763904e+003	
 -8.4100000e+000	  1.1421528e+004	
 -8.4000000e+000	  8.1729920e+003	
 -8.3900000e+000	  1.0228357e+004	
 -8.3800000e+000	  1.1409711e+004	
 -8.3700000e+000	  9.8273231e+003	
 -8.3600000e+000	  9.9678915e+003	
 -8.3500000e+000	  1.0688568e+004	
 -8.3400000e+000	  1.1983660e+004	
 -8.3300000e+000	  1.0584807e+004	
 -8.3200000e+000	  9.0177015e+003	
 -8.3100000e+000	  9.5431335e+003	
 -8.3000000e+000	  8.8057226e+003	
 -8.2900000e+000	  9.4568459e+003	
 -8.2800000e+000	  6.9614581e+003	
 -8.2700000e+000	  8.3489259e+003	
 -8.2600000e+000	  9.8698136e+003	
 -8.2500000e+000	  9.7430369e+003	
 -8.2400000e+000	  7.8892706e+003	
 -8.2300000e+000	  9.6876094e+003	
 -8.2200000e+000	  9.3317607e+003	
 -8.2100000e+000	  1.0131596e+004	
 -8.2000000e+000	  9.2423895e+003	
 -8.1900000e+000	  8.0558129e+003	
 -8.1800000e+000	  8.0578004e+003	
 -8.1700000e+000	  7.6734320e+003	
 -8.1600000e+000	  9.1058715e+003	
 -8.1500000e+000	  9.6695559e+003	
 -8.1400000e+000	  8.3552794e+003	
 -8.1300000e+000	  8.4140023e+003	
 -8.1200000e+000	  8.1460263e+003	
 -8.1100000e+000	  6.4514888e+003	
 -8.1000000e+000	  7.3462068e+003	
 -8.0900000e+000	  8.1505294e+003	
 -8.0800000e+000	  8.8514856e+003	
 -8.0700000e+000	  7.6384349e+003	
 -8.0600000e+000	  7.2263052e+003	
 -8.0500000e+000	  7.2925462e+003	
 -8.0400000e+000	  9.1537679e+003	
 -8.0300000e+000	  8.5929256e+003	
 -8.0200000e+000	  8.4177797e+003	
 -8.0100000e+000	  9.0134382e+003	
 -8.0000000e+000	  9.0494414e+003	
 -7.9900000e+000	  7.5254786e+003	
 -7.9800000e+000	  6.3874994e+003	
 -7.9700000e+000	  6.6119672e+003	
 -7.9600000e+000	  8.9302092e+003	
 -7.9500000e+000	  8.4599249e+003	
 -7.9400000e+000	  6.5553853e+003	
 -7.9300000e+000	  7.4943523e+003	
 -7.9200000e+000	  7.8051521e+003	
 -7.9100000e+000	  7.9475565e+003	
 -7.9000000e+000	  7.7288626e+003	
 -7.8900000e+000	  6.9196246e+003	
 -7.8800000e+000	  8.8149580e+003	
 -7.8700000e+000	  7.1724820e+003	
 -7.8600000e+000	  6.6839949e+003	
 -7.8500000e+000	  5.6334026e+003	
 -7.8400000e+000	  6.2803841e+003	
 -7.8300000e+000	  1.0274114e+004	
 -7.8200000e+000	  6.8819938e+003	
 -7.8100000e+000	  8.9245889e+003	
 -7.8000000e+000	  6.8822944e+003	
 -7.7900000e+000	  8.3871085e+003	
 -7.7800000e+000	  6.7330365e+003	
 -7.7700000e+000	  6.5787587e+003	
 -7.7600000e+000	  7.6068881e+003	
 -7.7500000e+000	  7.3745641e+003	
 -7.7400000e+000	  7.8722115e+003	
 -7.7300000e+000	  6.6362206e+003	
 -7.7200000e+000	  7.6623214e+003	
 -7.7100000e+000	  6.3674032e+003	
 -7.7000000e+000	  7.8552395e+003	
 -7.6900000e+000	  7.6575179e+003	
 -7.6800000e+000	  7.2546551e+003	
 -7.6700000e+000	  5.8645189e+003	
 -7.6600000e+000	  5.2356090e+003	
 -7.6500000e+000	  6.2495330e+003	
 -7.6400000e+000	  6.9382061e+003	
 -7.6300000e+000	  5.2416183e+003	
 -7.6200000e+000	  7.2562192e+003	
 -7.6100000e+000	  8.3202076e+003	
 -7.6000000e+000	  6.2020568e+003	
 -7.5900000e+000	  6.4922381e+003	
 -7.5800000e+000	  5.5734321e+003	
 -7.5700000e+000	  6.5091784e+003	
 -7.5600000e+000	  5.6511711e+003	
 -7.5500000e+000	  7.5323746e+003	
 -7.5400000e+000	  7.2343016e+003	
 -7.5300000e+000	  6.6630165e+003	
 -7.5200000e+000	  6.1137105e+003	
 -7.5100000e+000	  7.9925625e+003	
 -7.5000000e+000	  4.1701343e+003	
 -7.4900000e+000	  6.6466751e+003	
 -7.4800000e+000	  6.9324668e+003	
 -7.4700000e+000	  6.2729799e+003	
 -7.4600000e+000	  7.5167140e+003	
 -7.4500000e+000	  5.3781027e+003	
 -7.4400000e+000	  6.1888031e+003	
 -7.4300000e+000	  7.4601077e+003	
 -7.4200000e+000	  5.1668738e+003	
 -7.4100000e+000	  7.2898911e+003	
 -7.4000000e+000	  4.2303831e+003	
 -7.3900000e+000	  5.7361185e+003	
 -7.3800000e+000	  7.3609417e+003	
 -7.3700000e+000	  6.4512876e+003	
 -7.3600000e+000	  5.8634903e+003	
 -7.3500000e+000	  6.0946301e+003	
 -7.3400000e+000	  4.8987125e+003	
 -7.3300000e+000	  4.2769392e+003	
 -7.3200000e+000	  3.6553646e+003	
 -7.3100000e+000	  6.3159701e+003	
 -7.3000000e+000	  3.7583507e+003	
 -7.2900000e+000	  6.0429194e+003	
 -7.2800000e+000	  3.8066696e+003	
 -7.2700000e+000	  6.0894238e+003	
 -7.2600000e+000	  5.8313085e+003	
 -7.2500000e+000	  5.6914990e+003	
 -7.2400000e+000	  5.1138278e+003	
 -7.2300000e+000	  6.7213398e+003	
 -7.2200000e+000	  6.2786214e+003	
 -7.2100000e+000	  4.1687960e+003	
 -7.2000000e+000	  4.8537451e+003	
 -7.1900000e+000	  5.7601589e+003	
 -7.1800000e+000	  4.9361535e+003	
 -7.1700000e+000	  6.3604083e+003	
 -7.1600000e+000	  3.9970596e+003	
 -7.1500000e+000	  5.7515229e+003	
 -7.1400000e+000	  5.9223285e+003	
 -7.1300000e+000	  5.5140161e+003	
 -7.1200000e+000	  5.3870886e+003	
 -7.1100000e+000	  3.7543399e+003	
 -7.1000000e+000	  6.7462489e+003	
 -7.0900000e+000	  4.9137855e+003	
 -7.0800000e+000	  3.7591599e+003	
 -7.0700000e+000	  4.0072863e+003	
 -7.0600000e+000	  3.5230567e+003	
 -7.0500000e+000	  4.0058358e+003	
 -7.0400000e+000	  5.5238452e+003	
 -7.0300000e+000	  4.5545882e+003	
 -7.0200000e+000	  5.0476504e+003	
 -7.0100000e+000	  5.6377411e+003	
 -7.0000000e+000	  4.1348009e+003	
 -6.9900000e+000	  5.5319211e+003	
 -6.9800000e+000	  4.5615498e+003	
 -6.9700000e+000	  4.4237540e+003	
 -6.9600000e+000	  5.0234005e+003	
 -6.9500000e+000	  4.4923333e+003	
 -6.9400000e+000	  4.0604951e+003	
 -6.9300000e+000	  6.3129941e+003	
 -6.9200000e+000	  4.6346683e+003	
 -6.9100000e+000	  4.5815314e+003	
 -6.9000000e+000	  4.1293712e+003	
 -6.8900000e+000	  3.0379568e+003	
 -6.8800000e+000	  5.7326804e+003	
 -6.8700000e+000	  3.4924305e+003	
 -6.8600000e+000	  4.5427772e+003	
 -6.8500000e+000	  4.4599668e+003	
 -6.8400000e+000	  5.5256409e+003	
 -6.8300000e+000	  4.0991638e+003	
 -6.8200000e+000	  3.5084361e+003	
 -6.8100000e+000	  3.7359729e+003	
 -6.8000000e+000	  4.4134638e+003	
 -6.7900000e+000	  4.0605143e+003	
 -6.7800000e+000	  2.7546142e+003	
 -6.7700000e+000	  5.2352578e+003	
 -6.7600000e+000	  3.6975751e+003	
 -6.7500000e+000	  6.6740763e+003	
 -6.7400000e+000	  4.1123892e+003	
 -6.7300000e+000	  3.8484446e+003	
 -6.7200000e+000	  4.1642612e+003	
 -6.7100000e+000	  4.2756131e+003	
 -6.7000000e+000	  4.5778112e+003	
 -6.6900000e+000	  6.6330729e+003	
 -6.6800000e+000	  2.0393388e+003	
 -6.6700000e+000	  2.9462641e+003	
 -6.6600000e+000	  3.2508028e+003	
 -6.6500000e+000	  4.2192569e+003	
 -6.6400000e+000	  3.5121355e+003	
 -6.6300000e+000	  4.4268347e+003	
 -6.6200000e+000	  2.4507187e+003	
 -6.6100000e+000	  4.9728897e+003	
 -6.6000000e+000	  4.0598659e+003	
 -6.5900000e+000	  4.1018421e+003	
 -6.5800000e+000	  2.5191875e+003	
 -6.5700000e+000	  3.1310003e+003	
 -6.5600000e+000	  3.8679861e+003	
 -6.5500000e+000	  2.9157707e+003	
 -6.5400000e+000	  4.4744998e+003	
 -6.5300000e+000	  3.0011213e+003	
 -6.5200000e+000	  2.8256218e+003	
 -6.5100000e+000	  4.0593817e+003	
 -6.5000000e+000	  2.6744699e+003	
 -6.4900000e+000	  4.5179631e+003	
 -6.4800000e+000	  2.0125486e+003	
 -6.4700000e+000	  2.7720108e+003	
 -6.4600000e+000	  5.5174474e+003	
 -6.4500000e+000	  2.6122271e+003	
 -6.4400000e+000	  2.9735913e+003	
 -6.4300000e+000	  3.6966065e+003	
 -6.4200000e+000	  3.7537155e+003	
 -6.4100000e+000	  6.3050321e+003	
 -6.4000000e+000	  4.7551834e+003	
 -6.3900000e+000	  2.8275219e+003	
 -6.3800000e+000	  3.9780494e+003	
 -6.3700000e+000	  4.7143434e+003	
 -6.3600000e+000	  3.2230830e+003	
 -6.3500000e+000	  8.2379145e+002	
 -6.3400000e+000	  2.9243141e+003	
 -6.3300000e+000	  1.9119517e+003	
 -6.3200000e+000	  3.7755242e+003	
 -6.3100000e+000	  3.0622318e+003	
 -6.3000000e+000	  4.1996006e+003	
 -6.2900000e+000	  2.1159387e+003	
 -6.2800000e+000	  4.2642385e+003	
 -6.2700000e+000	  1.9288303e+003	
 -6.2600000e+000	  4.5843317e+003	
 -6.2500000e+000	  3.2314253e+003	
 -6.2400000e+000	  4.2253953e+003	
 -6.2300000e+000	  1.5856290e+003	
 -6.2200000e+000	  3.8570493e+003	
 -6.2100000e+000	  2.3801126e+003	
 -6.2000000e+000	  1.4166017e+003	
 -6.1900000e+000	  4.1982236e+003	
 -6.1800000e+000	  3.3281181e+003	
 -6.1700000e+000	  2.7404849e+003	
 -6.1600000e+000	  3.1079292e+003	
 -6.1500000e+000	  2.3769339e+003	
 -6.1400000e+000	  1.4809048e+003	
 -6.1300000e+000	  7.1216567e+002	
 -6.1200000e+000	  1.0893230e+003	
 -6.1100000e+000	  2.3178694e+003	
 -6.1000000e+000	  3.4412970e+003	
 -6.0900000e+000	  2.6460800e+003	
 -6.0800000e+000	  2.8673396e+003	
 -6.0700000e+000	  2.2605502e+003	
 -6.0600000e+000	  3.0099169e+003	
 -6.0500000e+000	  3.4936540e+003	
 -6.0400000e+000	  1.9166094e+003	
 -6.0300000e+000	  1.3768083e+003	
 -6.0200000e+000	  3.1703506e+003	
 -6.0100000e+000	  1.9651070e+003	
 -6.0000000e+000	  3.7769176e+002	
 -5.9900000e+000	  2.8211859e+003	
 -5.9800000e+000	  3.1556947e+003	
 -5.9700000e+000	  3.2437629e+003	
 -5.9600000e+000	  2.8942966e+003	
 -5.9500000e+000	  2.4273662e+003	
 -5.9400000e+000	  2.6132535e+003	
 -5.9300000e+000	  4.4085266e+003	
 -5.9200000e+000	  2.5027646e+003	
 -5.9100000e+000	  2.0884044e+003	
 -5.9000000e+000	  3.8153094e+003	
 -5.8900000e+000	  3.5642796e+003	
 -5.8800000e+000	  4.0988648e+003	
 -5.8700000e+000	  3.3399750e+003	
 -5.8600000e+000	  2.9170157e+003	
 -5.8500000e+000	  3.7325488e+003	
 -5.8400000e+000	  2.1605883e+003	
 -5.8300000e+000	  2.0198476e+003	
 -5.8200000e+000	  1.4890732e+003	
 -5.8100000e+000	  4.0131585e+003	
 -5.8000000e+000	  4.6118235e+003	
 -5.7900000e+000	  3.2649808e+003	
 -5.7800000e+000	  1.6426491e+003	
 -5.7700000e+000	  1.0136880e+003	
 -5.7600000e+000	  1.2997347e+003	
 -5.7500000e+000	  2.2435599e+003	
 -5.7400000e+000	  8.8477875e+002	
 -5.7300000e+000	  6.0502043e+002	
 -5.7200000e+000	  6.3342280e+002	
 -5.7100000e+000	  2.5758592e+003	
 -5.7000000e+000	  7.1214733e+001	
 -5.6900000e+000	  2.5883481e+003	
 -5.6800000e+000	  2.5049396e+003	
 -5.6700000e+000	  1.0111546e+003	
 -5.6600000e+000	  1.1065529e+003	
 -5.6500000e+000	  1.4592060e+003	
 -5.6400000e+000	  1.3860297e+003	
 -5.6300000e+000	  2.8563823e+003	
 -5.6200000e+000	  1.8516748e+003	
 -5.6100000e+000	  1.1294527e+003	
 -5.6000000e+000	  2.4712210e+003	
 -5.5900000e+000	  2.9329985e+003	
 -5.5800000e+000	  2.1315819e+002	
 -5.5700000e+000	  3.1290451e+003	
 -5.5600000e+000	  8.8151715e+002	
 -5.5500000e+000	 -4.7244692e+001	
 -5.5400000e+000	  1.9587986e+003	
 -5.5300000e+000	  3.0013209e+003	
 -5.5200000e+000	  3.0807780e+003	
 -5.5100000e+000	  1.4503332e+003	
 -5.5000000e+000	  2.5197587e+003	
 -5.4900000e+000	  1.6928243e+003	
 -5.4800000e+000	  1.6116943e+003	
 -5.4700000e+000	  2.9409800e+003	
 -5.4600000e+000	  2.0161690e+003	
 -5.4500000e+000	  2.7261587e+003	
 -5.4400000e+000	  2.2413932e+003	
 -5.4300000e+000	  1.0939199e+003	
 -5.4200000e+000	  2.2768548e+003	
 -5.4100000e+000	  1.5589394e+003	
 -5.4000000e+000	  4.7549872e+002	
 -5.3900000e+000	  1.8924861e+003	
 -5.3800000e+000	  1.6681413e+003	
 -5.3700000e+000	  1.1389373e+003	
 -5.3600000e+000	  1.7690091e+003	
 -5.3500000e+000	  7.9101598e+002	
 -5.3400000e+000	  3.5288650e+003	
 -5.3300000e+000	  1.8802882e+001	
 -5.3200000e+000	  6.1696697e+001	
 -5.3100000e+000	  2.6412960e+003	
 -5.3000000e+000	  8.1065605e+002	
 -5.2900000e+000	  9.2668410e+002	
 -5.2800000e+000	  9.1636292e+002	
 -5.2700000e+000	  2.4397995e+003	
 -5.2600000e+000	  1.6496400e+003	
 -5.2500000e+000	  2.0164102e+003	
 -5.2400000e+000	 -3.5217965e+002	
 -5.2300000e+000	 -2.8562049e+002	
 -5.2200000e+000	  1.7036647e+003	
 -5.2100000e+000	 -4.0685756e+002	
 -5.2000000e+000	  3.3626568e+003	
 -5.1900000e+000	  1.7714166e+003	
 -5.1800000e+000	  2.7464863e+003	
 -5.1700000e+000	 -3.4344529e+002	
 -5.1600000e+000	  1.9499999e+003	
 -5.1500000e+000	  1.8971130e+003	
 -5.1400000e+000	  2.5411163e+003	
 -5.1300000e+000	  1.0371413e+003	
 -5.1200000e+000	  6.2499020e+000	
 -5.1100000e+000	  6.4574360e+002	
 -5.1000000e+000	  8.2679067e+002	
 -5.0900000e+000	  1.0187498e+003	
 -5.0800000e+000	  1.1187861e+003	
 -5.0700000e+000	  1.5755205e+003	
 -5.0600000e+000	  3.4137200e+003	
 -5.0500000e+000	  4.6435624e+002	
 -5.0400000e+000	  6.2279965e+002	
 -5.0300000e+000	  3.0338851e+003	
 -5.0200000e+000	  3.7371651e+003	
 -5.0100000e+000	  5.2715873e+002	
 -5.0000000e+000	 -6.6402400e+002	
 -4.9900000e+000	  1.7358482e+003	
 -4.9800000e+000	  5.2587509e+002	
 -4.9700000e+000	  1.1429817e+003	
 -4.9600000e+000	  1.1106132e+003	
 -4.9500000e+000	  1.5231726e+003	
 -4.9400000e+000	 -1.1732219e+002	
 -4.9300000e+000	  1.4185993e+003	
 -4.9200000e+000	  7.5448125e+002	
 -4.9100000e+000	 -3.2742461e+002	
 -4.9000000e+000	  1.0110452e+003	
 -4.8900000e+000	  9.7592587e+001	
 -4.8800000e+000	  3.9983635e+003	
 -4.8700000e+000	  1.1751881e+003	
 -4.8600000e+000	  1.0171899e+003	
 -4.8500000e+000	  8.7649890e+002	
 -4.8400000e+000	  9.7976681e+002	
 -4.8300000e+000	  2.3055739e+003	
 -4.8200000e+000	 -3.0711198e+002	
 -4.8100000e+000	  3.0272710e+002	
 -4.8000000e+000	  2.0747171e+003	
 -4.7900000e+000	  1.5229486e+003	
 -4.7800000e+000	  8.5103609e+002	
 -4.7700000e+000	  2.3888700e+003	
 -4.7600000e+000	  9.2683554e+002	
 -4.7500000e+000	  1.9672556e+003	
 -4.7400000e+000	  1.0064346e+003	
 -4.7300000e+000	  2.7911554e+003	
 -4.7200000e+000	  1.8215481e+003	
 -4.7100000e+000	  1.6359094e+003	
 -4.7000000e+000	  1.2007652e+002	
 -4.6900000e+000	  5.2727392e+002	
 -4.6800000e+000	  1.3442207e+003	
 -4.6700000e+000	  1.2403546e+003	
 -4.6600000e+000	 -4.8343269e+002	
 -4.6500000e+000	  1.2118754e+003	
 -4.6400000e+000	  1.2806868e+003	
 -4.6300000e+000	 -8.4732846e+002	
 -4.6200000e+000	 -2.4008169e+002	
 -4.6100000e+000	  2.3646348e+003	
 -4.6000000e+000	  3.5128486e+002	
 -4.5900000e+000	 -2.4376765e+002	
 -4.5800000e+000	  5.1967042e+002	
 -4.5700000e+000	  2.1207110e+003	
 -4.5600000e+000	  1.2935572e+003	
 -4.5500000e+000	 -1.3932176e+003	
 -4.5400000e+000	  2.9846566e+002	
 -4.5300000e+000	 -7.4896580e+002	
 -4.5200000e+000	  2.2364910e+002	
 -4.5100000e+000	 -1.0725737e+003	
 -4.5000000e+000	  1.4888728e+003	
 -4.4900000e+000	  1.8409632e+003	
 -4.4800000e+000	  1.6509775e+003	
 -4.4700000e+000	  1.7982028e+003	
 -4.4600000e+000	  2.0357486e+003	
 -4.4500000e+000	 -3.0405667e+001	
 -4.4400000e+000	  2.6825426e+002	
 -4.4300000e+000	 -6.1572373e+002	
 -4.4200000e+000	 -1.2028038e+003	
 -4.4100000e+000	 -1.7891507e+002	
 -4.4000000e+000	 -5.6347039e+002	
 -4.3900000e+000	  7.9626528e+002	
 -4.3800000e+000	  3.6117550e+002	
 -4.3700000e+000	  1.1654820e+003	
 -4.3600000e+000	 -2.1099746e+002	
 -4.3500000e+000	  1.0559229e+003	
 -4.3400000e+000	  9.0493757e+002	
 -4.3300000e+000	 -9.3675433e+002	
 -4.3200000e+000	 -1.2623861e+003	
 -4.3100000e+000	 -1.6435204e+003	
 -4.3000000e+000	  2.8730779e+001	
 -4.2900000e+000	  7.6114074e+002	
 -4.2800000e+000	  1.1825365e+003	
 -4.2700000e+000	 -3.2979156e+002	
 -4.2600000e+000	  2.3385106e+002	
 -4.2500000e+000	 -1.6183608e+003	
 -4.2400000e+000	  2.4287624e+003	
 -4.2300000e+000	 -1.4689467e+002	
 -4.2200000e+000	  1.0091950e+003	
 -4.2100000e+000	 -9.7485061e+002	
 -4.2000000e+000	  1.2979040e+002	
 -4.1900000e+000	  1.5761063e+003	
 -4.1800000e+000	 -6.0128525e+002	
 -4.1700000e+000	  1.1035023e+003	
 -4.1600000e+000	 -5.8219548e+002	
 -4.1500000e+000	  1.2404760e+003	
 -4.1400000e+000	  1.0811207e+003	
 -4.1300000e+000	  4.5831368e+002	
 -4.1200000e+000	  2.3703582e+003	
 -4.1100000e+000	 -1.0361320e+003	
 -4.1000000e+000	  1.1012146e+003	
 -4.0900000e+000	  2.3403751e+003	
 -4.0800000e+000	  8.6497426e+002	
 -4.0700000e+000	  1.2568481e+003	
 -4.0600000e+000	  3.5767689e+002	
 -4.0500000e+000	  1.4196683e+003	
 -4.0400000e+000	 -1.2636532e+003	
 -4.0300000e+000	 -6.0415204e+002	
 -4.0200000e+000	 -5.6776981e+002	
 -4.0100000e+000	 -6.2813571e+002	
 -4.0000000e+000	  2.9053881e+003	
 -3.9900000e+000	  2.2373923e+003	
 -3.9800000e+000	 -1.1782119e+002	
 -3.9700000e+000	  9.3859587e+002	
 -3.9600000e+000	 -1.1618964e+003	
 -3.9500000e+000	 -2.1908950e+002	
 -3.9400000e+000	  1.8965595e+002	
 -3.9300000e+000	  7.8252312e+002	
 -3.9200000e+000	  1.6761498e+003	
 -3.9100000e+000	  1.0846376e+003	
 -3.9000000e+000	  4.4289768e+002	
 -3.8900000e+000	  1.7004260e+003	
 -3.8800000e+000	  2.6921205e+002	
 -3.8700000e+000	  1.1035654e+003	
 -3.8600000e+000	  2.4782510e+003	
 -3.8500000e+000	 -7.3059420e+002	
 -3.8400000e+000	  1.5419063e+002	
 -3.8300000e+000	 -5.4913461e+002	
 -3.8200000e+000	 -1.1427661e+003	
 -3.8100000e+000	  1.4115580e+003	
 -3.8000000e+000	 -4.4456845e+001	
 -3.7900000e+000	 -1.2890325e+003	
 -3.7800000e+000	 -6.1575638e+002	
 -3.7700000e+000	  1.3895158e+003	
 -3.7600000e+000	  1.0465365e+003	
 -3.7500000e+000	  5.0815761e+002	
 -3.7400000e+000	 -1.1938520e+003	
 -3.7300000e+000	 -1.3327131e+002	
 -3.7200000e+000	 -5.7930856e+002	
 -3.7100000e+000	  1.7176303e+003	
 -3.7000000e+000	 -2.8760006e+002	
 -3.6900000e+000	  1.2219647e+003	
 -3.6800000e+000	  2.0622317e+003	
 -3.6700000e+000	  1.7000739e+003	
 -3.6600000e+000	  9.8067909e+002	
 -3.6500000e+000	 -9.3461362e+002	
 -3.6400000e+000	  2.6751738e+003	
 -3.6300000e+000	 -9.7432643e+002	
 -3.6200000e+000	 -3.4277889e+002	
 -3.6100000e+000	  3.2332596e+002	
 -3.6000000e+000	  1.0825973e+003	
 -3.5900000e+000	  6.0564579e+002	
 -3.5800000e+000	 -4.7454711e+002	
 -3.5700000e+000	 -6.6980022e+002	
 -3.5600000e+000	 -1.1805510e+003	
 -3.5500000e+000	 -6.3588915e+001	
 -3.5400000e+000	  2.6141205e+001	
 -3.5300000e+000	  1.7012187e+002	
 -3.5200000e+000	 -7.4082501e+001	
 -3.5100000e+000	  8.0693869e+002	
 -3.5000000e+000	  1.5962412e+002	
 -3.4900000e+000	 -2.8994037e+002	
 -3.4800000e+000	  1.6430669e+001	
 -3.4700000e+000	  1.9295800e+003	
 -3.4600000e+000	  3.5168766e+002	
 -3.4500000e+000	  1.3446572e+003	
 -3.4400000e+000	 -1.0014025e+002	
 -3.4300000e+000	 -4.2450119e+002	
 -3.4200000e+000	  1.6668335e+003	
 -3.4100000e+000	  8.8236903e+002	
 -3.4000000e+000	 -3.3609135e+002	
 -3.3900000e+000	  1.6399654e+003	
 -3.3800000e+000	  2.4662565e+001	
 -3.3700000e+000	  1.9158911e+002	
 -3.3600000e+000	  2.0450330e+002	
 -3.3500000e+000	  9.6755206e+001	
 -3.3400000e+000	  5.3243481e+002	
 -3.3300000e+000	 -1.1848622e+003	
 -3.3200000e+000	  7.9207949e+002	
 -3.3100000e+000	 -2.2167925e+003	
 -3.3000000e+000	  2.2011096e+002	
 -3.2900000e+000	 -8.8951279e+002	
 -3.2800000e+000	  6.8864325e+002	
 -3.2700000e+000	 -7.8132270e+002	
 -3.2600000e+000	  1.0938945e+003	
 -3.2500000e+000	 -4.7948595e+002	
 -3.2400000e+000	 -7.2232724e+002	
 -3.2300000e+000	  4.9005575e+002	
 -3.2200000e+000	 -1.4931117e+002	
 -3.2100000e+000	 -3.1405301e+002	
 -3.2000000e+000	 -3.4513733e+002	
 -3.1900000e+000	  1.0543229e+003	
 -3.1800000e+000	 -2.8814435e+002	
 -3.1700000e+000	  8.8830881e+001	
 -3.1600000e+000	 -3.9651555e+002	
 -3.1500000e+000	  2.0345560e+001	
 -3.1400000e+000	 -5.9382138e+002	
 -3.1300000e+000	  7.0776897e+002	
 -3.1200000e+000	  4.5415260e+002	
 -3.1100000e+000	  1.0343876e+003	
 -3.1000000e+000	  4.3807972e+002	
 -3.0900000e+000	  5.0928065e+002	
 -3.0800000e+000	  3.7067080e+002	
 -3.0700000e+000	  1.7250446e+003	
 -3.0600000e+000	  4.8400843e+001	
 -3.0500000e+000	 -1.8660913e+002	
 -3.0400000e+000	  4.5078348e+002	
 -3.0300000e+000	 -2.3194100e+002	
 -3.0200000e+000	 -1.1577520e+003	
 -3.0100000e+000	 -4.3113390e+002	
 -3.0000000e+000	 -3.9549908e+002	
 -2.9900000e+000	  6.2923487e+002	
 -2.9800000e+000	  6.9004508e+002	
 -2.9700000e+000	 -5.2617560e+001	
 -2.9600000e+000	  3.8646918e+002	
 -2.9500000e+000	 -7.3949563e+002	
 -2.9400000e+000	  5.1283445e+001	
 -2.9300000e+000	 -1.5809463e+002	
 -2.9200000e+000	  8.3788452e+002	
 -2.9100000e+000	  1.0073522e+003	
 -2.9000000e+000	 -4.0748149e+002	
 -2.8900000e+000	 -1.7906105e+003	
 -2.8800000e+000	  1.9833598e+002	
 -2.8700000e+000	  1.3046014e+003	
 -2.8600000e+000	  1.2482733e+003	
 -2.8500000e+000	  7.5913794e+002	
 -2.8400000e+000	  1.1224205e+003	
 -2.8300000e+000	 -8.0293775e+002	
 -2.8200000e+000	 -1.1303871e+003	
 -2.8100000e+000	  5.8389448e+002	
 -2.8000000e+000	 -3.1189445e+001	
 -2.7900000e+000	 -1.0646204e+003	
 -2.7800000e+000	  8.2531233e+002	
 -2.7700000e+000	  1.4979898e+003	
 -2.7600000e+000	  3.7682648e+002	
 -2.7500000e+000	  3.9451515e+002	
 -2.7400000e+000	  2.3688100e+002	
 -2.7300000e+000	 -5.9641891e+002	
 -2.7200000e+000	  1.2991601e+002	
 -2.7100000e+000	  9.6323528e+002	
 -2.7000000e+000	 -1.0364729e+003	
 -2.6900000e+000	  1.0584226e+003	
 -2.6800000e+000	  1.3593062e+003	
 -2.6700000e+000	  1.5345541e+001	
 -2.6600000e+000	 -1.4772024e+001	
 -2.6500000e+000	  1.4695171e+003	
 -2.6400000e+000	  5.7100634e+002	
 -2.6300000e+000	  5.4022100e+002	
 -2.6200000e+000	 -5.5512133e+001	
 -2.6100000e+000	 -7.2334728e+002	
 -2.6000000e+000	 -3.5993527e+002	
 -2.5900000e+000	  5.0761688e+002	
 -2.5800000e+000	 -8.2902098e+002	
 -2.5700000e+000	  5.6501956e+001	
 -2.5600000e+000	 -6.5014457e+002	
 -2.5500000e+000	 -1.2563860e+003	
 -2.5400000e+000	  1.7132507e+003	
 -2.5300000e+000	  9.5147118e+002	
 -2.5200000e+000	 -1.2559434e+002	
 -2.5100000e+000	  1.2266189e+003	
 -2.5000000e+000	  1.6119977e+002	
 -2.4900000e+000	  5.4907826e+002	
 -2.4800000e+000	  5.0497910e+002	
 -2.4700000e+000	  3.7656736e+002	
 -2.4600000e+000	  8.6385265e+001	
 -2.4500000e+000	  6.1085815e+001	
 -2.4400000e+000	 -6.5244585e+002	
 -2.4300000e+000	  1.2481230e+003	
 -2.4200000e+000	 -2.2946770e+002	
 -2.4100000e+000	  2.5685566e+001	
 -2.4000000e+000	 -1.0070276e+003	
 -2.3900000e+000	  9.6567860e+001	
 -2.3800000e+000	  1.5643951e+003	
 -2.3700000e+000	 -1.0494337e+003	
 -2.3600000e+000	  7.8321739e+002	
 -2.3500000e+000	 -1.4037108e+003	
 -2.3400000e+000	  5.9601669e+002	
 -2.3300000e+000	  1.5969947e+003	
 -2.3200000e+000	  1.8201689e+002	
 -2.3100000e+000	 -1.0981554e+003	
 -2.3000000e+000	  1.7748436e+003	
 -2.2900000e+000	 -9.9503244e+002	
 -2.2800000e+000	 -6.1892405e+002	
 -2.2700000e+000	  4.9121516e+002	
 -2.2600000e+000	  4.2723264e+002	
 -2.2500000e+000	 -2.5483121e+001	
 -2.2400000e+000	  3.0344251e+002	
 -2.2300000e+000	  4.8688220e+002	
 -2.2200000e+000	 -1.2029566e+002	
 -2.2100000e+000	  3.1340389e+002	
 -2.2000000e+000	 -3.2364725e+002	
 -2.1900000e+000	 -4.7416524e+002	
 -2.1800000e+000	 -4.6578239e+002	
 -2.1700000e+000	  1.2329567e+002	
 -2.1600000e+000	 -9.6646286e+002	
 -2.1500000e+000	 -6.5579351e+002	
 -2.1400000e+000	 -7.8558541e+001	
 -2.1300000e+000	  3.9879275e+002	
 -2.1200000e+000	 -1.6415049e+002	
 -2.1100000e+000	  3.7189433e+001	
 -2.1000000e+000	 -5.9090128e+002	
 -2.0900000e+000	 -1.4832414e+003	
 -2.0800000e+000	 -5.6631711e+002	
 -2.0700000e+000	 -5.5570978e+002	
 -2.0600000e+000	  1.4663404e+003	
 -2.0500000e+000	  1.0596366e+003	
 -2.0400000e+000	  5.4431793e+002	
 -2.0300000e+000	  1.2567389e+003	
 -2.0200000e+000	  1.1532268e+002	
 -2.0100000e+000	 -5.3625858e+002	
 -2.0000000e+000	  8.9032024e+002	
 -1.9900000e+000	 -6.4699258e+002	
 -1.9800000e+000	 -7.4994586e+002	
 -1.9700000e+000	  5.7251294e+002	
 -1.9600000e+000	 -5.5217417e+002	
 -1.9500000e+000	 -1.0132029e+003	
 -1.9400000e+000	 -7.5866004e+002	
 -1.9300000e+000	 -6.0957928e+002	
 -1.9200000e+000	 -1.3441576e+003	
 -1.9100000e+000	 -7.1560015e+002	
 -1.9000000e+000	  5.5306363e+002	
 -1.8900000e+000	  2.1904863e+003	
 -1.8800000e+000	 -5.6229113e+002	
 -1.8700000e+000	  6.2307146e+002	
 -1.8600000e+000	  1.8040011e+003	
 -1.8500000e+000	  7.5927241e+000	
 -1.8400000e+000	 -3.5655780e+002	
 -1.8300000e+000	  2.3237614e+002	
 -1.8200000e+000	  2.2981214e+002	
 -1.8100000e+000	 -8.0113783e+002	
 -1.8000000e+000	  1.3469050e+002	
 -1.7900000e+000	 -5.7215944e+002	
 -1.7800000e+000	 -1.0771290e+003	
 -1.7700000e+000	  1.3813948e+002	
 -1.7600000e+000	  9.1827633e+002	
 -1.7500000e+000	  6.1651390e+002	
 -1.7400000e+000	  2.0079423e+001	
 -1.7300000e+000	  7.2066339e+002	
 -1.7200000e+000	  1.0966622e+003	
 -1.7100000e+000	 -1.2369558e+002	
 -1.7000000e+000	 -3.1109868e+002	
 -1.6900000e+000	  7.2796851e+002	
 -1.6800000e+000	  7.5589786e+000	
 -1.6700000e+000	  1.8842075e+003	
 -1.6600000e+000	 -1.2807698e+003	
 -1.6500000e+000	 -1.4786241e+003	
 -1.6400000e+000	 -1.0483144e+003	
 -1.6300000e+000	  1.5290271e+002	
 -1.6200000e+000	 -4.4320078e+001	
 -1.6100000e+000	 -2.2464382e+002	
 -1.6000000e+000	  9.4914918e+002	
 -1.5900000e+000	 -1.3969407e+002	
 -1.5800000e+000	  5.2863101e+002	
 -1.5700000e+000	  1.6396073e+003	
 -1.5600000e+000	  1.1699916e+003	
 -1.5500000e+000	 -4.7613455e+002	
 -1.5400000e+000	  2.2310740e+003	
 -1.5300000e+000	  9.8294444e+002	
 -1.5200000e+000	  2.4230472e+002	
 -1.5100000e+000	 -1.0543837e+003	
 -1.5000000e+000	  1.7130161e+003	
 -1.4900000e+000	 -1.0173941e+002	
 -1.4800000e+000	 -1.0425907e+002	
 -1.4700000e+000	  3.8718245e+001	
 -1.4600000e+000	  2.3511500e+002	
 -1.4500000e+000	  2.2216421e+003	
 -1.4400000e+000	  1.3611382e+003	
 -1.4300000e+000	 -7.1977964e+001	
 -1.4200000e+000	  1.5975821e+003	
 -1.4100000e+000	 -3.4379728e+002	
 -1.4000000e+000	 -1.0590606e+003	
 -1.3900000e+000	 -4.4816987e+002	
 -1.3800000e+000	 -5.9980613e+002	
 -1.3700000e+000	 -1.1763782e+002	
 -1.3600000e+000	 -6.1843667e+001	
 -1.3500000e+000	  8.3283630e+002	
 -1.3400000e+000	 -6.9854491e+002	
 -1.3300000e+000	  1.0064796e+003	
 -1.3200000e+000	 -3.0030191e+002	
 -1.3100000e+000	  5.1770871e+002	
 -1.3000000e+000	  1.8443945e+003	
 -1.2900000e+000	  1.4148696e+002	
 -1.2800000e+000	  5.0691003e+002	
 -1.2700000e+000	 -6.8869008e+002	
 -1.2600000e+000	  2.3704190e+002	
 -1.2500000e+000	 -7.8378734e+002	
 -1.2400000e+000	 -1.6691417e+002	
 -1.2300000e+000	 -7.0305341e+002	
 -1.2200000e+000	  9.4833813e+001	
 -1.2100000e+000	 -8.7664089e+002	
 -1.2000000e+000	  8.6126233e+002	
 -1.1900000e+000	  2.6781245e+002	
 -1.1800000e+000	 -1.2788886e+003	
 -1.1700000e+000	 -1.9556984e+003	
 -1.1600000e+000	 -1.5012176e+003	
 -1.1500000e+000	 -9.3025583e+002	
 -1.1400000e+000	 -7.7418809e+000	
 -1.1300000e+000	  3.8659010e+002	
 -1.1200000e+000	 -1.2068247e+003	
 -1.1100000e+000	 -1.7897702e+003	
 -1.1000000e+000	 -4.9537205e+002	
 -1.0900000e+000	 -1.7063665e+003	
 -1.0800000e+000	 -2.3694910e+002	
 -1.0700000e+000	 -1.1538226e+003	
 -1.0600000e+000	  4.4722355e+002	
 -1.0500000e+000	 -6.3661904e+002	
 -1.0400000e+000	  6.8743461e+001	
 -1.0300000e+000	 -9.6270264e+002	
 -1.0200000e+000	  1.7371296e+003	
 -1.0100000e+000	  8.7971478e+001	
 -1.0000000e+000	 -2.7490334e+002	
 -9.9000000e-001	 -1.3246201e+003	
 -9.8000000e-001	  3.4200138e+002	
 -9.7000000e-001	 -1.0926909e+003	
 -9.6000000e-001	 -1.1660095e+003	
 -9.5000000e-001	 -7.0570926e+002	
 -9.4000000e-001	 -6.6367578e+002	
 -9.3000000e-001	 -6.2063267e+002	
 -9.2000000e-001	  1.6620344e+003	
 -9.1000000e-001	  6.4951499e+002	
 -9.0000000e-001	  1.3575580e+003	
 -8.9000000e-001	 -2.6777858e+003	
 -8.8000000e-001	 -2.7541357e+002	
 -8.7000000e-001	 -1.4869603e+002	
 -8.6000000e-001	 -3.2176144e+002	
 -8.5000000e-001	  1.6496028e+003	
 -8.4000000e-001	 -5.1639434e+002	
 -8.3000000e-001	 -8.0932936e+002	
 -8.2000000e-001	  3.1888092e+002	
 -8.1000000e-001	 -1.2442119e+003	
 -8.0000000e-001	  1.6280825e+003	
 -7.9000000e-001	  1.0106498e+003	
 -7.8000000e-001	  2.3314248e+003	
 -7.7000000e-001	  5.5497205e+002	
 -7.6000000e-001	  2.0523857e+002	
 -7.5000000e-001	  1.2392366e+003	
 -7.4000000e-001	  1.3586034e+002	
 -7.3000000e-001	 -1.8891740e+001	
 -7.2000000e-001	 -9.4342001e+002	
 -7.1000000e-001	 -7.7368714e+002	
 -7.0000000e-001	 -3.6562412e+001	
 -6.9000000e-001	  6.6237276e+002	
 -6.8000000e-001	  9.7884104e+002	
 -6.7000000e-001	 -6.5455570e+002	
 -6.6000000e-001	 -4.7223063e+002	
 -6.5000000e-001	 -8.8375384e+002	
 -6.4000000e-001	 -1.2481794e+003	
 -6.3000000e-001	  2.9271633e+002	
 -6.2000000e-001	 -2.9815911e+002	
 -6.1000000e-001	  1.3362619e+003	
 -6.0000000e-001	 -4.3093167e+002	
 -5.9000000e-001	  8.7424528e+002	
 -5.8000000e-001	 -5.1144393e+002	
 -5.7000000e-001	  4.5182520e+002	
 -5.6000000e-001	  1.2306498e+003	
 -5.5000000e-001	 -1.8545693e+002	
 -5.4000000e-001	  2.1788777e+002	
 -5.3000000e-001	 -2.6330335e+003	
 -5.2000000e-001	 -4.7128136e+002	
 -5.1000000e-001	  2.0004632e+002	
 -5.0000000e-001	  1.1045158e+002	
 -4.9000000e-001	  1.6623276e+003	
 -4.8000000e-001	  3.4068400e+002	
 -4.7000000e-001	 -1.5467409e+000	
 -4.6000000e-001	  5.2218866e+002	
 -4.5000000e-001	 -1.2925874e+003	
 -4.4000000e-001	 -4.6777209e+002	
 -4.3000000e-001	  4.9665061e+002	
 -4.2000000e-001	 -2.3286884e+002	
 -4.1000000e-001	 -2.3937336e+003	
 -4.0000000e-001	  7.2313414e+002	
 -3.9000000e-001	 -1.3683722e+003	
 -3.8000000e-001	 -1.2626704e+003	
 -3.7000000e-001	  4.2567231e+002	
 -3.6000000e-001	 -2.4294502e+002	
 -3.5000000e-001	 -7.7935046e+002	
 -3.4000000e-001	 -1.5796059e+003	
 -3.3000000e-001	 -6.2228612e+002	
 -3.2000000e-001	 -2.1872484e+003	
 -3.1000000e-001	  3.5476029e+002	
 -3.0000000e-001	 -7.5310983e+001	
 -2.9000000e-001	 -1.3056711e+003	
 -2.8000000e-001	 -1.9738175e+002	
 -2.7000000e-001	  2.9370616e+003	
 -2.6000000e-001	  2.2324331e+002	
 -2.5000000e-001	  3.9846567e+002	
 -2.4000000e-001	  1.6102064e+003	
 -2.3000000e-001	  3.8616687e+002	
 -2.2000000e-001	  9.7124819e+000	
 -2.1000000e-001	  7.2504382e+001	
 -2.0000000e-001	  3.1919723e+002	
 -1.9000000e-001	  1.0708642e+003	
 -1.8000000e-001	  3.0083428e+002	
 -1.7000000e-001	  1.1721904e+003	
 -1.6000000e-001	 -1.0941351e+002	
 -1.5000000e-001	  8.2724313e+002	
 -1.4000000e-001	 -5.1982712e+002	
 -1.3000000e-001	  8.5302709e+002	
 -1.2000000e-001	 -1.1751197e+003	
 -1.1000000e-001	 -4.5440008e+002	
 -1.0000000e-001	 -5.0610858e+002	
 -9.0000000e-002	  1.8036928e+003	
 -8.0000000e-002	 -1.0127481e+003	
 -7.0000000e-002	 -1.2402891e+003	
 -6.0000000e-002	  2.6656502e+002	
 -5.0000000e-002	 -1.2077523e+003	
 -4.0000000e-002	 -1.0500724e+003	
 -3.0000000e-002	  4.6866582e+002	
 -2.0000000e-002	  2.8290001e+002	
 -1.0000000e-002	  1.3411972e+003	
  0.0000000e+000	  3.8059744e+002	
  1.0000000e-002	  1.4354306e+003	
  2.0000000e-002	  7.9958787e+002	
  3.0000000e-002	  1.6285605e+003	
  4.0000000e-002	  1.2910685e+002	
  5.0000000e-002	 -2.0847639e+003	
  6.0000000e-002	 -6.4711446e+002	
  7.0000000e-002	 -2.5173216e+002	
  8.0000000e-002	  1.9021651e+002	
  9.0000000e-002	 -4.6754221e+002	
  1.0000000e-001	  5.3073979e+002	
  1.1000000e-001	  2.4465611e+002	
  1.2000000e-001	  1.9464290e+003	
  1.3000000e-001	 -1.2770537e+003	
  1.4000000e-001	  7.4582775e+000	
  1.5000000e-001	 -3.6345445e+002	
  1.6000000e-001	  1.2668373e+003	
  1.7000000e-001	  5.3803901e+002	
  1.8000000e-001	  8.0682673e+002	
  1.9000000e-001	 -1.1146882e+002	
  2.0000000e-001	  9.1289541e+002	
  2.1000000e-001	  1.5246356e+003	
  2.2000000e-001	 -6.9236037e+002	
  2.3000000e-001	 -9.0246934e+002	
  2.4000000e-001	  7.0400472e+001	
  2.5000000e-001	 -6.8845901e+002	
  2.6000000e-001	  1.2309108e+003	
  2.7000000e-001	 -2.7454831e+002	
  2.8000000e-001	 -1.1035870e+003	
  2.9000000e-001	  8.1209816e+001	
  3.0000000e-001	 -7.8573354e+002	
  3.1000000e-001	 -1.4635329e+003	
  3.2000000e-001	  3.9686607e+002	
  3.3000000e-001	 -5.6426327e+002	
  3.4000000e-001	  3.7818835e+002	
  3.5000000e-001	  1.1705217e+003	
  3.6000000e-001	 -4.5778167e+001	
  3.7000000e-001	 -6.3502350e+002	
  3.8000000e-001	  3.3142503e+002	
  3.9000000e-001	  8.8223406e+002	
  4.0000000e-001	  4.1859564e+002	
  4.1000000e-001	 -4.0491900e+001	
  4.2000000e-001	 -7.0081341e+001	
  4.3000000e-001	 -1.0145841e+003	
  4.4000000e-001	 -1.3367176e+002	
  4.5000000e-001	 -4.0718431e+001	
  4.6000000e-001	  6.0285794e+002	
  4.7000000e-001	  7.8235812e+002	
  4.8000000e-001	  2.1474479e+002	
  4.9000000e-001	 -8.0966395e+002	
  5.0000000e-001	 -1.3851362e+003	
  5.1000000e-001	  9.1009440e+001	
  5.2000000e-001	 -2.1387579e+002	
  5.3000000e-001	  1.5102604e+002	
  5.4000000e-001	 -2.3552482e+003	
  5.5000000e-001	  6.2032112e+002	
  5.6000000e-001	  3.1081846e+002	
  5.7000000e-001	 -9.0569279e+001	
  5.8000000e-001	 -3.9669690e+002	
  5.9000000e-001	  5.9491906e+002	
  6.0000000e-001	  2.2045239e+002	
  6.1000000e-001	 -7.1622820e+002	
  6.2000000e-001	  1.2037489e+001	
  6.3000000e-001	 -9.5468914e+002	
  6.4000000e-001	 -7.7800721e+002	
  6.5000000e-001	  1.5291176e+003	
  6.6000000e-001	 -1.8679674e+003	
  6.7000000e-001	 -1.2205515e+003	
  6.8000000e-001	  2.6505852e+003	
  6.9000000e-001	  9.5378507e+001	
  7.0000000e-001	  3.9671383e+002	
  7.1000000e-001	  1.3580450e+003	
  7.2000000e-001	 -1.9406090e+003	
  7.3000000e-001	  1.7611560e+003	
  7.4000000e-001	  1.0608401e+003	
  7.5000000e-001	 -1.0461584e+003	
  7.6000000e-001	 -2.7135872e+002	
  7.7000000e-001	  4.3756964e+002	
  7.8000000e-001	 -8.6504619e+002	
  7.9000000e-001	 -6.3924150e+002	
  8.0000000e-001	 -5.1845605e+002	
  8.1000000e-001	 -1.4762137e+002	
  8.2000000e-001	 -6.4996004e+002	
  8.3000000e-001	  6.0062241e+002	
  8.4000000e-001	  9.5089673e+001	
  8.5000000e-001	  1.3822792e+003	
  8.6000000e-001	 -7.5373385e+002	
  8.7000000e-001	  9.6866319e+002	
  8.8000000e-001	  5.4015607e+002	
  8.9000000e-001	  6.4434477e+002	
  9.0000000e-001	 -8.9874233e+001	
  9.1000000e-001	 -8.1318038e+001	
  9.2000000e-001	 -1.3336799e+003	
  9.3000000e-001	  1.1747762e+003	
  9.4000000e-001	 -1.8857809e+002	
  9.5000000e-001	  3.9729790e+002	
  9.6000000e-001	  7.4641409e+002	
  9.7000000e-001	 -2.4886245e+002	
  9.8000000e-001	  1.6722475e+002	
  9.9000000e-001	 -4.3337702e+002	
  1.0000000e+000	  1.1728190e+003	
  1.0100000e+000	 -9.0709948e+002	
  1.0200000e+000	  1.3036140e+003	
  1.0300000e+000	  1.0436225e+003	
  1.0400000e+000	  1.4775658e+003	
  1.0500000e+000	  2.8911825e+002	
  1.0600000e+000	  1.4486942e+003	
  1.0700000e+000	 -5.7381648e+001	
  1.0800000e+000	 -1.5574943e+002	
  1.0900000e+000	 -4.2201388e+002	
  1.1000000e+000	  4.5764939e+002	
  1.1100000e+000	 -4.1178953e+002	
  1.1200000e+000	 -5.5407302e+001	
  1.1300000e+000	 -2.4989667e+002	
  1.1400000e+000	 -2.0981898e+002	
  1.1500000e+000	 -2.1235983e+003	
  1.1600000e+000	 -2.3191170e+002	
  1.1700000e+000	 -1.7044518e+003	
  1.1800000e+000	  3.2614027e+002	
  1.1900000e+000	  7.4387721e+002	
  1.2000000e+000	 -6.9325784e+002	
  1.2100000e+000	  6.9599140e+002	
  1.2200000e+000	  4.3232553e+002	
  1.2300000e+000	  1.6967747e+001	
  1.2400000e+000	  1.7606546e+003	
  1.2500000e+000	  7.7656443e+002	
  1.2600000e+000	 -2.6084264e+001	
  1.2700000e+000	  7.0647115e+002	
  1.2800000e+000	  6.5521154e+002	
  1.2900000e+000	  1.6898669e+003	
  1.3000000e+000	 -1.3840933e+003	
  1.3100000e+000	  7.3492728e+002	
  1.3200000e+000	  2.0984977e+002	
  1.3300000e+000	 -8.9787733e+002	
  1.3400000e+000	 -1.6519851e+003	
  1.3500000e+000	 -8.8428063e+002	
  1.3600000e+000	 -8.8933855e+001	
  1.3700000e+000	  4.1555022e+002	
  1.3800000e+000	  6.8111185e+002	
  1.3900000e+000	 -3.0987903e+002	
  1.4000000e+000	 -2.2353873e+002	
  1.4100000e+000	  6.8307730e+002	
  1.4200000e+000	  8.3938318e+002	
  1.4300000e+000	  1.2105530e+003	
  1.4400000e+000	 -1.8894956e+003	
  1.4500000e+000	 -1.1986094e+003	
  1.4600000e+000	  2.9521981e+002	
  1.4700000e+000	  1.0605910e+003	
  1.4800000e+000	 -8.8615270e+002	
  1.4900000e+000	 -2.8020333e+002	
  1.5000000e+000	 -4.4577062e+002	
  1.5100000e+000	 -5.6906745e+001	
  1.5200000e+000	 -4.4211787e+002	
  1.5300000e+000	  7.6847136e+002	
  1.5400000e+000	 -1.5389581e+003	
  1.5500000e+000	  2.0328086e+003	
  1.5600000e+000	 -1.3518684e+003	
  1.5700000e+000	  1.0209265e+003	
  1.5800000e+000	  1.1698937e+003	
  1.5900000e+000	 -1.5378552e+002	
  1.6000000e+000	  1.9304261e+002	
  1.6100000e+000	 -4.3541374e+002	
  1.6200000e+000	  7.9885899e+002	
  1.6300000e+000	  3.3461003e+002	
  1.6400000e+000	  2.4542674e+002	
  1.6500000e+000	  8.7457646e+002	
  1.6600000e+000	 -6.9718419e+001	
  1.6700000e+000	  1.2170487e+003	
  1.6800000e+000	 -7.3955920e+000	
  1.6900000e+000	  7.0989922e+002	
  1.7000000e+000	  9.3403139e+001	
  1.7100000e+000	  5.3212749e+002	
  1.7200000e+000	  1.9864705e+002	
  1.7300000e+000	  6.0673164e+002	
  1.7400000e+000	 -4.0127118e+002	
  1.7500000e+000	  1.2170657e+003	
  1.7600000e+000	 -3.1847646e+002	
  1.7700000e+000	  3.8734556e+002	
  1.7800000e+000	 -1.1157274e+003	
  1.7900000e+000	  1.4011623e+003	
  1.8000000e+000	  8.6710554e+002	
  1.8100000e+000	 -2.7839703e+002	
  1.8200000e+000	 -8.6440053e+002	
  1.8300000e+000	 -3.5529453e+002	
  1.8400000e+000	  4.0493462e+002	
  1.8500000e+000	  4.5247848e+002	
  1.8600000e+000	  6.9906534e+002	
  1.8700000e+000	 -5.2699500e+002	
  1.8800000e+000	  6.6621514e+001	
  1.8900000e+000	 -1.4211353e+002	
  1.9000000e+000	 -5.8984139e+002	
  1.9100000e+000	  8.6337241e+002	
  1.9200000e+000	  3.8733825e+002	
  1.9300000e+000	 -3.1189691e+002	
  1.9400000e+000	 -3.7053424e+002	
  1.9500000e+000	  7.8691672e-001	
  1.9600000e+000	 -6.6570549e+002	
  1.9700000e+000	 -8.6385889e+002	
  1.9800000e+000	 -3.9491833e+001	
  1.9900000e+000	 -3.6292331e+002	
  2.0000000e+000	 -2.5955440e+002	
  2.0100000e+000	  4.7998272e+002	
  2.0200000e+000	  1.7874820e+003	
  2.0300000e+000	 -7.8179185e+002	
  2.0400000e+000	  1.9059670e+003	
  2.0500000e+000	  1.6988214e+002	
  2.0600000e+000	 -6.4041841e+002	
  2.0700000e+000	  6.8619076e+002	
  2.0800000e+000	  4.2959781e+002	
  2.0900000e+000	 -5.0337056e+002	
  2.1000000e+000	  1.6547698e+002	
  2.1100000e+000	 -1.3939577e+003	
  2.1200000e+000	 -2.5207096e+003	
  2.1300000e+000	  3.4531745e+002	
  2.1400000e+000	 -1.0413047e+003	
  2.1500000e+000	  6.7753478e+002	
  2.1600000e+000	  6.4645061e+002	
  2.1700000e+000	  1.0625640e+003	
  2.1800000e+000	  6.9122681e+002	
  2.1900000e+000	  8.1744004e+002	
  2.2000000e+000	 -2.3097979e+002	
  2.2100000e+000	  2.2884604e+003	
  2.2200000e+000	  3.1637258e+002	
  2.2300000e+000	  4.4904551e+002	
  2.2400000e+000	  1.3698267e+003	
  2.2500000e+000	 -9.9212396e+002	
  2.2600000e+000	  3.0837064e+003	
  2.2700000e+000	 -1.1629985e+003	
  2.2800000e+000	  1.4810148e+003	
  2.2900000e+000	  1.3904926e+003	
  2.3000000e+000	 -6.1166982e+002	
  2.3100000e+000	 -1.9145685e+003	
  2.3200000e+000	 -8.5591568e+002	
  2.3300000e+000	  2.1898187e+002	
  2.3400000e+000	  5.2472406e+002	
  2.3500000e+000	  3.7679884e+002	
  2.3600000e+000	 -4.0875226e+002	
  2.3700000e+000	  4.7801690e+000	
  2.3800000e+000	  1.8541019e+003	
  2.3900000e+000	  4.9477514e+002	
  2.4000000e+000	 -1.4455386e+002	
  2.4100000e+000	  8.6266752e+001	
  2.4200000e+000	  1.0256064e+003	
  2.4300000e+000	 -2.4778927e+002	
  2.4400000e+000	  9.0763187e+002	
  2.4500000e+000	 -7.3102841e+002	
  2.4600000e+000	 -6.3768434e+002	
  2.4700000e+000	 -7.2624966e+002	
  2.4800000e+000	 -1.7406259e+003	
  2.4900000e+000	  1.5059309e+003	
  2.5000000e+000	  1.3174190e+003	
  2.5100000e+000	 -6.0552208e+002	
  2.5200000e+000	  6.0793073e+002	
  2.5300000e+000	  1.4366385e+003	
  2.5400000e+000	 -7.7193807e+002	
  2.5500000e+000	 -8.9371885e+002	
  2.5600000e+000	 -3.2846712e+002	
  2.5700000e+000	  1.0635312e+003	
  2.5800000e+000	  3.7484279e+002	
  2.5900000e+000	 -7.0054060e+001	
  2.6000000e+000	  1.1928364e+003	
  2.6100000e+000	 -1.0037198e+003	
  2.6200000e+000	 -9.5437529e+002	
  2.6300000e+000	  1.1452574e+002	
  2.6400000e+000	  4.6996935e+002	
  2.6500000e+000	  4.1241256e+002	
  2.6600000e+000	 -8.4396197e+002	
  2.6700000e+000	 -3.0747793e+002	
  2.6800000e+000	 -1.5126280e+002	
  2.6900000e+000	  2.9430215e+002	
  2.7000000e+000	  2.5849397e+002	
  2.7100000e+000	  3.2759877e+002	
  2.7200000e+000	 -6.3657067e+002	
  2.7300000e+000	  6.7313289e+002	
  2.7400000e+000	  1.1624404e+003	
  2.7500000e+000	 -8.4412066e+001	
  2.7600000e+000	 -2.2829355e+002	
  2.7700000e+000	  6.2259444e+002	
  2.7800000e+000	 -7.0752362e+002	
  2.7900000e+000	  1.8597354e+003	
  2.8000000e+000	 -6.6465556e+002	
  2.8100000e+000	  1.4704713e+002	
  2.8200000e+000	 -6.5692842e+002	
  2.8300000e+000	 -3.2086566e+002	
  2.8400000e+000	 -2.5849944e+001	
  2.8500000e+000	  1.1542727e+003	
  2.8600000e+000	 -2.7629794e+002	
  2.8700000e+000	  1.0354375e+002	
  2.8800000e+000	 -2.3354568e+001	
  2.8900000e+000	  1.3395348e+003	
  2.9000000e+000	 -1.8691069e+003	
  2.9100000e+000	  7.0818926e+002	
  2.9200000e+000	  2.2319424e+002	
  2.9300000e+000	 -1.3105144e+003	
  2.9400000e+000	  1.7831137e+002	
  2.9500000e+000	  7.8113711e+001	
  2.9600000e+000	  1.2630940e+002	
  2.9700000e+000	  7.7215434e+002	
  2.9800000e+000	  1.7269964e+002	
  2.9900000e+000	  8.5051899e+002	
  3.0000000e+000	  1.8810576e+003	
  3.0100000e+000	  8.5964964e+002	
  3.0200000e+000	  4.5496941e+001	
  3.0300000e+000	 -5.3919421e+002	
  3.0400000e+000	  2.0126316e+003	
  3.0500000e+000	 -2.0867706e+002	
  3.0600000e+000	  1.2243592e+003	
  3.0700000e+000	  1.0330050e+003	
  3.0800000e+000	  8.5595888e+002	
  3.0900000e+000	  5.7222845e+002	
  3.1000000e+000	 -3.8395530e+002	
  3.1100000e+000	  9.5644368e+002	
  3.1200000e+000	  7.4571162e+001	
  3.1300000e+000	  2.1166728e+002	
  3.1400000e+000	  1.6200530e+002	
  3.1500000e+000	 -2.5573539e+002	
  3.1600000e+000	 -9.9163253e+002	
  3.1700000e+000	 -2.1656272e+002	
  3.1800000e+000	  1.4422302e+003	
  3.1900000e+000	  2.2113562e+003	
  3.2000000e+000	  1.6973736e+002	
  3.2100000e+000	  8.4549056e+002	
  3.2200000e+000	  6.4827354e+002	
  3.2300000e+000	 -1.4365620e+003	
  3.2400000e+000	  4.0858344e+002	
  3.2500000e+000	 -6.8871547e+002	
  3.2600000e+000	 -1.3657200e+003	
  3.2700000e+000	 -4.7250806e+002	
  3.2800000e+000	  1.9127995e+003	
  3.2900000e+000	  3.2554104e+002	
  3.3000000e+000	 -8.3719935e+002	
  3.3100000e+000	  9.5624157e+002	
  3.3200000e+000	  7.3468176e+002	
  3.3300000e+000	 -6.3538779e+001	
  3.3400000e+000	  8.0823269e+002	
  3.3500000e+000	 -3.2448974e+001	
  3.3600000e+000	 -1.0196714e+003	
  3.3700000e+000	 -9.9992705e+002	
  3.3800000e+000	  1.2443383e+002	
  3.3900000e+000	 -6.9422147e+002	
  3.4000000e+000	 -2.5690708e+002	
  3.4100000e+000	  3.2344826e+002	
  3.4200000e+000	  4.1841403e+002	
  3.4300000e+000	 -1.2886837e+003	
  3.4400000e+000	  5.9326887e+002	
  3.4500000e+000	  1.9024575e+002	
  3.4600000e+000	  9.3085079e+002	
  3.4700000e+000	  1.1453031e+003	
  3.4800000e+000	 -1.0234528e+003	
  3.4900000e+000	  9.3153121e+002	
  3.5000000e+000	  4.5771695e+002	
  3.5100000e+000	  1.6046491e+003	
  3.5200000e+000	  4.9544453e+002	
  3.5300000e+000	 -4.2821959e+002	
  3.5400000e+000	 -1.7322678e+003	
  3.5500000e+000	 -7.0132508e+002	
  3.5600000e+000	 -8.8669376e+002	
  3.5700000e+000	  4.7955055e+002	
  3.5800000e+000	 -1.0181936e+003	
  3.5900000e+000	 -1.0667253e+003	
  3.6000000e+000	  4.7780132e+002	
  3.6100000e+000	  2.2457038e+003	
  3.6200000e+000	 -5.2420911e+002	
  3.6300000e+000	 -1.2490819e+003	
  3.6400000e+000	 -1.9690835e+003	
  3.6500000e+000	 -5.3069596e+002	
  3.6600000e+000	  9.0003663e+002	
  3.6700000e+000	  1.8972030e+002	
  3.6800000e+000	  3.8852034e+002	
  3.6900000e+000	  1.0488832e+003	
  3.7000000e+000	  1.8390573e+003	
  3.7100000e+000	 -1.5487412e+003	
  3.7200000e+000	 -4.7889394e+001	
  3.7300000e+000	 -3.4336200e+002	
  3.7400000e+000	 -2.8854949e+002	
  3.7500000e+000	 -2.1782118e+003	
  3.7600000e+000	 -9.0622135e+002	
  3.7700000e+000	  1.6051693e+003	
  3.7800000e+000	  1.0953402e+003	
  3.7900000e+000	  5.0377888e+002	
  3.8000000e+000	  1.1304432e+003	
  3.8100000e+000	 -9.5109824e+002	
  3.8200000e+000	  2.6992558e+002	
  3.8300000e+000	  5.7759103e+001	
  3.8400000e+000	  1.1842248e+003	
  3.8500000e+000	  1.9208274e+003	
  3.8600000e+000	 -4.2994997e+002	
  3.8700000e+000	  1.5340437e+003	
  3.8800000e+000	  5.0965667e+002	
  3.8900000e+000	  1.7371157e+003	
  3.9000000e+000	  1.4480636e+003	
  3.9100000e+000	 -4.6526941e+002	
  3.9200000e+000	  2.3873130e+003	
  3.9300000e+000	 -9.6207311e+002	
  3.9400000e+000	  6.9683951e+002	
  3.9500000e+000	  2.0687653e+003	
  3.9600000e+000	 -1.0131331e+003	
  3.9700000e+000	  1.6260026e+002	
  3.9800000e+000	  1.1467337e+002	
  3.9900000e+000	  6.6682874e+002	
  4.0000000e+000	  1.0952503e+003	
  4.0100000e+000	  2.3250325e+002	
  4.0200000e+000	  9.6087266e+002	
  4.0300000e+000	  2.7025806e+003	
  4.0400000e+000	  2.0872680e+003	
  4.0500000e+000	  2.2686562e+003	
  4.0600000e+000	  1.0905370e+003	
  4.0700000e+000	 -1.4113979e+002	
  4.0800000e+000	  9.2527250e+002	
  4.0900000e+000	  1.2387421e+003	
  4.1000000e+000	  1.5990012e+003	
  4.1100000e+000	  1.3285649e+003	
  4.1200000e+000	 -2.4968541e+001	
  4.1300000e+000	 -7.0956174e+002	
  4.1400000e+000	 -7.7343825e+002	
  4.1500000e+000	  4.5436595e+001	
  4.1600000e+000	  1.1056834e+003	
  4.1700000e+000	  2.1523734e+003	
  4.1800000e+000	  5.1596391e+002	
  4.1900000e+000	  1.5398243e+003	
  4.2000000e+000	 -6.0275633e+002	
  4.2100000e+000	  1.9668935e+003	
  4.2200000e+000	  7.1124096e+002	
  4.2300000e+000	  1.8832832e+003	
  4.2400000e+000	  1.2834738e+003	
  4.2500000e+000	  6.6044565e+000	
  4.2600000e+000	 -3.1498922e+002	
  4.2700000e+000	 -1.6431320e+003	
  4.2800000e+000	  5.5632157e+002	
  4.2900000e+000	  5.2822856e+002	
  4.3000000e+000	  2.8858029e+002	
  4.3100000e+000	  1.6047546e+003	
  4.3200000e+000	  6.8439504e+002	
  4.3300000e+000	  1.3920351e+003	
  4.3400000e+000	  1.4704952e+003	
  4.3500000e+000	  9.8711387e+002	
  4.3600000e+000	 -1.6300116e+002	
  4.3700000e+000	  1.3033783e+003	
  4.3800000e+000	  3.1023563e+002	
  4.3900000e+000	 -7.0715632e+002	
  4.4000000e+000	  1.7235995e+003	
  4.4100000e+000	  3.2025723e+003	
  4.4200000e+000	 -3.5526545e+001	
  4.4300000e+000	  7.8640807e+002	
  4.4400000e+000	  2.0096013e+003	
  4.4500000e+000	 -1.3472895e+003	
  4.4600000e+000	 -1.1326431e+003	
  4.4700000e+000	  5.5186288e+002	
  4.4800000e+000	  1.8533172e+003	
  4.4900000e+000	  4.2005115e+003	
  4.5000000e+000	  4.0325167e+003	
  4.5100000e+000	  1.8440108e+003	
  4.5200000e+000	  1.4758811e+003	
  4.5300000e+000	  2.6995453e+002	
  4.5400000e+000	 -9.3273653e+002	
  4.5500000e+000	  7.5949477e+002	
  4.5600000e+000	  1.0430188e+003	
  4.5700000e+000	  9.7020249e+002	
  4.5800000e+000	  2.5371000e+003	
  4.5900000e+000	  9.9910797e+002	
  4.6000000e+000	  2.4972668e+003	
  4.6100000e+000	  1.6733896e+003	
  4.6200000e+000	  1.7188095e+003	
  4.6300000e+000	 -4.8604815e+002	
  4.6400000e+000	  1.7211761e+003	
  4.6500000e+000	  1.5920269e+003	
  4.6600000e+000	  2.4417160e+002	
  4.6700000e+000	  1.3339737e+003	
  4.6800000e+000	  1.4133299e+003	
  4.6900000e+000	  1.5190976e+003	
  4.7000000e+000	  1.6987009e+003	
  4.7100000e+000	  2.1541058e+003	
  4.7200000e+000	  1.0732959e+003	
  4.7300000e+000	  1.5439578e+003	
  4.7400000e+000	  1.0203077e+003	
  4.7500000e+000	  2.0041097e+003	
  4.7600000e+000	  4.2950169e+002	
  4.7700000e+000	  2.0884250e+003	
  4.7800000e+000	 -1.7127760e+002	
  4.7900000e+000	  1.9372612e+003	
  4.8000000e+000	  9.2319796e+002	
  4.8100000e+000	  1.3791149e+003	
  4.8200000e+000	  7.3699981e+002	
  4.8300000e+000	  9.6165175e+002	
  4.8400000e+000	  1.4139934e+003	
  4.8500000e+000	  1.9746389e+003	
  4.8600000e+000	  2.0013116e+003	
  4.8700000e+000	  1.4769549e+003	
  4.8800000e+000	  2.3886310e+003	
  4.8900000e+000	  1.5176642e+003	
  4.9000000e+000	  2.3730602e+003	
  4.9100000e+000	  3.0599350e+003	
  4.9200000e+000	 -7.0499573e+000	
  4.9300000e+000	  5.3470499e+001	
  4.9400000e+000	  2.4403155e+003	
  4.9500000e+000	  1.0491930e+003	
  4.9600000e+000	  1.6876499e+003	
  4.9700000e+000	  2.7852604e+003	
  4.9800000e+000	  5.9147967e+002	
  4.9900000e+000	  2.6738603e+002	
  5.0000000e+000	  1.3404462e+003	
  5.0100000e+000	  1.4484448e+003	
  5.0200000e+000	  1.7929766e+003	
  5.0300000e+000	  1.7849555e+003	
  5.0400000e+000	 -1.3493815e+002	
  5.0500000e+000	  1.0973489e+003	
  5.0600000e+000	  1.0704392e+003	
  5.0700000e+000	 -1.0214129e+003	
  5.0800000e+000	  1.6864133e+001	
  5.0900000e+000	  2.1144220e+003	
  5.1000000e+000	  2.5242122e+002	
  5.1100000e+000	  1.6064209e+003	
  5.1200000e+000	 -3.8463732e+002	
  5.1300000e+000	  1.6798458e+003	
  5.1400000e+000	  2.2775237e+003	
  5.1500000e+000	  2.5487110e+003	
  5.1600000e+000	  9.8256887e+002	
  5.1700000e+000	  4.4867296e+002	
  5.1800000e+000	  2.2242092e+003	
  5.1900000e+000	  1.4063049e+003	
  5.2000000e+000	  1.5198193e+003	
  5.2100000e+000	  2.7025213e+003	
  5.2200000e+000	  3.3112299e+003	
  5.2300000e+000	  6.2123104e+002	
  5.2400000e+000	  1.0185076e+003	
  5.2500000e+000	  1.6042720e+003	
  5.2600000e+000	  2.2022043e+003	
  5.2700000e+000	  2.8848641e+003	
  5.2800000e+000	  2.1221137e+003	
  5.2900000e+000	  1.1376705e+003	
  5.3000000e+000	  2.5804688e+003	
  5.3100000e+000	  2.1715516e+003	
  5.3200000e+000	  1.4400237e+003	
  5.3300000e+000	  2.2078710e+003	
  5.3400000e+000	  1.8279983e+003	
  5.3500000e+000	  3.4620102e+003	
  5.3600000e+000	  1.3999545e+003	
  5.3700000e+000	  2.9301239e+003	
  5.3800000e+000	  2.8618948e+003	
  5.3900000e+000	  1.1549851e+003	
  5.4000000e+000	  2.3809122e+003	
  5.4100000e+000	  2.6116901e+003	
  5.4200000e+000	  3.3632374e+003	
  5.4300000e+000	  4.4212072e+002	
  5.4400000e+000	  9.4536736e+002	
  5.4500000e+000	  1.9253618e+003	
  5.4600000e+000	 -5.8875768e+002	
  5.4700000e+000	  2.6401675e+002	
  5.4800000e+000	 -4.6723538e+000	
  5.4900000e+000	  2.5166409e+003	
  5.5000000e+000	  1.1998704e+003	
  5.5100000e+000	  4.8455213e+003	
  5.5200000e+000	  2.6684145e+003	
  5.5300000e+000	  2.6851157e+003	
  5.5400000e+000	  1.7240520e+003	
  5.5500000e+000	  1.5848835e+003	
  5.5600000e+000	  2.7260834e+003	
  5.5700000e+000	  3.1050568e+003	
  5.5800000e+000	  3.3982329e+003	
  5.5900000e+000	  3.3281470e+003	
  5.6000000e+000	  3.0594913e+003	
  5.6100000e+000	  1.9562019e+003	
  5.6200000e+000	  1.9690172e+003	
  5.6300000e+000	  1.1302380e+003	
  5.6400000e+000	  1.8892623e+003	
  5.6500000e+000	  2.4306538e+003	
  5.6600000e+000	  6.6131090e+002	
  5.6700000e+000	  1.6587153e+003	
  5.6800000e+000	  1.6741260e+003	
  5.6900000e+000	  2.1901732e+003	
  5.7000000e+000	  1.7842693e+003	
  5.7100000e+000	  1.8029545e+003	
  5.7200000e+000	  8.3217599e+002	
  5.7300000e+000	  9.9724207e+002	
  5.7400000e+000	  8.7659106e+002	
  5.7500000e+000	  2.4946259e+003	
  5.7600000e+000	  2.6338819e+003	
  5.7700000e+000	  3.4380950e+002	
  5.7800000e+000	  1.1087409e+003	
  5.7900000e+000	  1.8784376e+003	
  5.8000000e+000	  2.8065069e+003	
  5.8100000e+000	  2.4880531e+003	
  5.8200000e+000	  3.1552158e+003	
  5.8300000e+000	  9.5779531e+002	
  5.8400000e+000	  1.6702997e+003	
  5.8500000e+000	  9.9131215e+002	
  5.8600000e+000	  2.4480198e+003	
  5.8700000e+000	  1.5598448e+003	
  5.8800000e+000	  3.1530476e+003	
  5.8900000e+000	  7.1768142e+002	
  5.9000000e+000	  2.5041549e+003	
  5.9100000e+000	  2.7763399e+002	
  5.9200000e+000	  1.5473458e+003	
  5.9300000e+000	  2.3944618e+003	
  5.9400000e+000	  2.8880112e+003	
  5.9500000e+000	  2.8388077e+003	
  5.9600000e+000	  7.6569761e+002	
  5.9700000e+000	  3.0131055e+003	
  5.9800000e+000	  3.3570969e+003	
  5.9900000e+000	  1.7763718e+003	
  6.0000000e+000	  3.6080619e+003	
  6.0100000e+000	  2.0469759e+003	
  6.0200000e+000	  1.7789371e+003	
  6.0300000e+000	  2.8312253e+003	
  6.0400000e+000	  3.3186351e+003	
  6.0500000e+000	  3.1418395e+003	
  6.0600000e+000	  2.9950050e+003	
  6.0700000e+000	  3.3066527e+003	
  6.0800000e+000	  2.4225325e+003	
  6.0900000e+000	  3.4373785e+003	
  6.1000000e+000	  3.3914260e+003	
  6.1100000e+000	  1.2272211e+003	
  6.1200000e+000	  2.2265889e+003	
  6.1300000e+000	  3.7681202e+003	
  6.1400000e+000	  2.4809468e+003	
  6.1500000e+000	  2.2451147e+003	
  6.1600000e+000	  2.6228237e+003	
  6.1700000e+000	  3.8267808e+003	
  6.1800000e+000	  1.6608834e+003	
  6.1900000e+000	  3.7170985e+003	
  6.2000000e+000	  3.7552379e+003	
  6.2100000e+000	  3.4842835e+003	
  6.2200000e+000	  2.3424711e+003	
  6.2300000e+000	  1.8838377e+003	
  6.2400000e+000	  3.9427426e+003	
  6.2500000e+000	  3.4619495e+003	
  6.2600000e+000	  3.1934988e+003	
  6.2700000e+000	  3.2719202e+003	
  6.2800000e+000	  3.5186414e+003	
  6.2900000e+000	  3.4964480e+003	
  6.3000000e+000	  4.3476849e+003	
  6.3100000e+000	  3.8333292e+003	
  6.3200000e+000	  3.2782636e+003	
  6.3300000e+000	  4.1901637e+003	
  6.3400000e+000	  5.1280322e+003	
  6.3500000e+000	  3.5039887e+003	
  6.3600000e+000	  4.2609634e+003	
  6.3700000e+000	  2.2018754e+003	
  6.3800000e+000	  4.4628389e+003	
  6.3900000e+000	  2.7669533e+003	
  6.4000000e+000	  3.0184963e+003	
  6.4100000e+000	  4.0605914e+003	
  6.4200000e+000	  2.9904112e+003	
  6.4300000e+000	  1.2391987e+003	
  6.4400000e+000	  1.4549137e+003	
  6.4500000e+000	  2.0763667e+003	
  6.4600000e+000	  4.0292665e+003	
  6.4700000e+000	  3.0065703e+003	
  6.4800000e+000	  3.1941413e+003	
  6.4900000e+000	  2.4727433e+003	
  6.5000000e+000	  5.4483651e+003	
  6.5100000e+000	  3.3503367e+003	
  6.5200000e+000	  2.8076936e+003	
  6.5300000e+000	  3.8949671e+003	
  6.5400000e+000	  2.0870272e+003	
  6.5500000e+000	  3.1590477e+003	
  6.5600000e+000	  3.8027639e+003	
  6.5700000e+000	  5.8161290e+003	
  6.5800000e+000	  4.0478845e+003	
  6.5900000e+000	  4.0854301e+003	
  6.6000000e+000	  4.5735321e+003	
  6.6100000e+000	  4.8576282e+003	
  6.6200000e+000	  3.3057221e+003	
  6.6300000e+000	  4.2213279e+003	
  6.6400000e+000	  2.1929981e+003	
  6.6500000e+000	  4.3858549e+003	
  6.6600000e+000	  2.8026321e+003	
  6.6700000e+000	  3.7964930e+003	
  6.6800000e+000	  4.1884311e+003	
  6.6900000e+000	  3.1606335e+003	
  6.7000000e+000	  5.3068616e+003	
  6.7100000e+000	  3.5388259e+003	
  6.7200000e+000	  3.4466331e+003	
  6.7300000e+000	  4.7810726e+003	
  6.7400000e+000	  5.4459456e+003	
  6.7500000e+000	  4.3293301e+003	
  6.7600000e+000	  3.1239131e+003	
  6.7700000e+000	  5.2431561e+003	
  6.7800000e+000	  3.4719328e+003	
  6.7900000e+000	  2.2258179e+003	
  6.8000000e+000	  3.2824620e+003	
  6.8100000e+000	  5.8432260e+003	
  6.8200000e+000	  6.3864399e+003	
  6.8300000e+000	  4.5678341e+003	
  6.8400000e+000	  4.4702374e+003	
  6.8500000e+000	  2.6232927e+003	
  6.8600000e+000	  2.6326546e+003	
  6.8700000e+000	  5.2050729e+003	
  6.8800000e+000	  4.2313837e+003	
  6.8900000e+000	  3.7267139e+003	
  6.9000000e+000	  4.0111920e+003	
  6.9100000e+000	  4.0869877e+003	
  6.9200000e+000	  4.4621356e+003	
  6.9300000e+000	  3.5199235e+003	
  6.9400000e+000	  4.8485025e+003	
  6.9500000e+000	  4.9445816e+003	
  6.9600000e+000	  5.5184280e+003	
  6.9700000e+000	  4.2179051e+003	
  6.9800000e+000	  6.3362131e+003	
  6.9900000e+000	  4.4431724e+003	
  7.0000000e+000	  5.3388203e+003	
  7.0100000e+000	  4.3720990e+003	
  7.0200000e+000	  6.5644539e+003	
  7.0300000e+000	  4.4081146e+003	
  7.0400000e+000	  5.8408333e+003	
  7.0500000e+000	  4.5842699e+003	
  7.0600000e+000	  5.9136703e+003	
  7.0700000e+000	  6.0881405e+003	
  7.0800000e+000	  4.8655564e+003	
  7.0900000e+000	  4.7197690e+003	
  7.1000000e+000	  4.5202751e+003	
  7.1100000e+000	  4.9202280e+003	
  7.1200000e+000	  4.7072814e+003	
  7.1300000e+000	  3.2885057e+003	
  7.1400000e+000	  4.9264620e+003	
  7.1500000e+000	  5.5184024e+003	
  7.1600000e+000	  4.5035664e+003	
  7.1700000e+000	  4.6417266e+003	
  7.1800000e+000	  4.7084601e+003	
  7.1900000e+000	  5.3050319e+003	
  7.2000000e+000	  4.5563329e+003	
  7.2100000e+000	  4.1597994e+003	
  7.2200000e+000	  6.9779700e+003	
  7.2300000e+000	  4.9075127e+003	
  7.2400000e+000	  6.0368440e+003	
  7.2500000e+000	  4.3537176e+003	
  7.2600000e+000	  7.5325613e+003	
  7.2700000e+000	  5.5961186e+003	
  7.2800000e+000	  6.7825781e+003	
  7.2900000e+000	  6.4198594e+003	
  7.3000000e+000	  5.6713299e+003	
  7.3100000e+000	  6.0256100e+003	
  7.3200000e+000	  5.1200815e+003	
  7.3300000e+000	  5.8866170e+003	
  7.3400000e+000	  6.6609890e+003	
  7.3500000e+000	  5.3013470e+003	
  7.3600000e+000	  5.2988432e+003	
  7.3700000e+000	  5.6958082e+003	
  7.3800000e+000	  6.6931788e+003	
  7.3900000e+000	  4.9798569e+003	
  7.4000000e+000	  4.9462684e+003	
  7.4100000e+000	  5.7389131e+003	
  7.4200000e+000	  5.7975734e+003	
  7.4300000e+000	  6.7852920e+003	
  7.4400000e+000	  7.2054338e+003	
  7.4500000e+000	  5.0945269e+003	
  7.4600000e+000	  4.2895945e+003	
  7.4700000e+000	  4.6566910e+003	
  7.4800000e+000	  5.0626090e+003	
  7.4900000e+000	  5.0050498e+003	
  7.5000000e+000	  6.2406010e+003	
  7.5100000e+000	  5.9493382e+003	
  7.5200000e+000	  8.0009559e+003	
  7.5300000e+000	  7.1680875e+003	
  7.5400000e+000	  6.4381533e+003	
  7.5500000e+000	  5.2598142e+003	
  7.5600000e+000	  6.6900678e+003	
  7.5700000e+000	  6.9140325e+003	
  7.5800000e+000	  7.0470634e+003	
  7.5900000e+000	  6.2697687e+003	
  7.6000000e+000	  5.6707851e+003	
  7.6100000e+000	  8.2755923e+003	
  7.6200000e+000	  6.1933713e+003	
  7.6300000e+000	  6.8218514e+003	
  7.6400000e+000	  7.5075432e+003	
  7.6500000e+000	  6.8761266e+003	
  7.6600000e+000	  6.1181091e+003	
  7.6700000e+000	  8.5573246e+003	
  7.6800000e+000	  4.1712996e+003	
  7.6900000e+000	  7.4645622e+003	
  7.7000000e+000	  8.5364570e+003	
  7.7100000e+000	  6.9332983e+003	
  7.7200000e+000	  6.9908268e+003	
  7.7300000e+000	  6.5233229e+003	
  7.7400000e+000	  9.6097606e+003	
  7.7500000e+000	  8.8372809e+003	
  7.7600000e+000	  7.2189347e+003	
  7.7700000e+000	  7.0356008e+003	
  7.7800000e+000	  6.5087501e+003	
  7.7900000e+000	  8.9025853e+003	
  7.8000000e+000	  5.7965250e+003	
  7.8100000e+000	  6.5748311e+003	
  7.8200000e+000	  7.0408669e+003	
  7.8300000e+000	  6.4279761e+003	
  7.8400000e+000	  6.3352651e+003	
  7.8500000e+000	  8.3020991e+003	
  7.8600000e+000	  7.5635739e+003	
  7.8700000e+000	  7.1860470e+003	
  7.8800000e+000	  7.4548064e+003	
  7.8900000e+000	  7.6436642e+003	
  7.9000000e+000	  6.8411466e+003	
  7.9100000e+000	  7.6182518e+003	
  7.9200000e+000	  7.0088906e+003	
  7.9300000e+000	  8.7177531e+003	
  7.9400000e+000	  8.4382368e+003	
  7.9500000e+000	  7.6419229e+003	
  7.9600000e+000	  8.3605471e+003	
  7.9700000e+000	  7.2180898e+003	
  7.9800000e+000	  7.4997379e+003	
  7.9900000e+000	  7.5299397e+003	
  8.0000000e+000	  8.3990479e+003	
  8.0100000e+000	  8.2864708e+003	
  8.0200000e+000	  6.2462491e+003	
  8.0300000e+000	  7.3352864e+003	
  8.0400000e+000	  7.8690805e+003	
  8.0500000e+000	  8.1834710e+003	
  8.0600000e+000	  7.9270926e+003	
  8.0700000e+000	  9.1368992e+003	
  8.0800000e+000	  9.8204963e+003	
  8.0900000e+000	  9.5740490e+003	
  8.1000000e+000	  8.9962906e+003	
  8.1100000e+000	  9.7344711e+003	
  8.1200000e+000	  9.8773085e+003	
  8.1300000e+000	  9.2924282e+003	
  8.1400000e+000	  1.0776248e+004	
  8.1500000e+000	  8.5710321e+003	
  8.1600000e+000	  9.2153048e+003	
  8.1700000e+000	  8.4557179e+003	
  8.1800000e+000	  8.3188311e+003	
  8.1900000e+000	  8.0185498e+003	
  8.2000000e+000	  8.2809432e+003	
  8.2100000e+000	  7.8030786e+003	
  8.2200000e+000	  8.8297271e+003	
  8.2300000e+000	  8.4682597e+003	
  8.2400000e+000	  1.0777194e+004	
  8.2500000e+000	  9.7929411e+003	
  8.2600000e+000	  7.3757486e+003	
  8.2700000e+000	  1.0523869e+004	
  8.2800000e+000	  8.8663266e+003	
  8.2900000e+000	  7.8680771e+003	
  8.3000000e+000	  1.0022836e+004	
  8.3100000e+000	  1.0762605e+004	
  8.3200000e+000	  9.8751671e+003	
  8.3300000e+000	  1.0033564e+004	
  8.3400000e+000	  8.8776503e+003	
  8.3500000e+000	  9.5729622e+003	
  8.3600000e+000	  9.6708015e+003	
  8.3700000e+000	  9.5848983e+003	
  8.3800000e+000	  1.0596123e+004	
  8.3900000e+000	  9.1371137e+003	
  8.4000000e+000	  9.6351219e+003	
  8.4100000e+000	  9.5574093e+003	
  8.4200000e+000	  1.0467605e+004	
  8.4300000e+000	  1.1359527e+004	
  8.4400000e+000	  1.1924860e+004	
  8.4500000e+000	  1.2288242e+004	
  8.4600000e+000	  9.2404213e+003	
  8.4700000e+000	  9.5623875e+003	
  8.4800000e+000	  1.2284312e+004	
  8.4900000e+000	  1.0766442e+004	
  8.5000000e+000	  9.8873370e+003	
  8.5100000e+000	  1.1890517e+004	
  8.5200000e+000	  8.9850116e+003	
  8.5300000e+000	  1.0124320e+004	
  8.5400000e+000	  9.7003135e+003	
  8.5500000e+000	  1.1806888e+004	
  8.5600000e+000	  1.2694848e+004	
  8.5700000e+000	  1.1530191e+004	
  8.5800000e+000	  1.2335847e+004	
  8.5900000e+000	  1.2452868e+004	
  8.6000000e+000	  1.1636768e+004	
  8.6100000e+000	  1.0482632e+004	
  8.6200000e+000	  1.1950192e+004	
  8.6300000e+000	  1.1423677e+004	
  8.6400000e+000	  1.0025150e+004	
  8.6500000e+000	  1.0638297e+004	
  8.6600000e+000	  1.2744529e+004	
  8.6700000e+000	  1.0148202e+004	
  8.6800000e+000	  1.1676753e+004	
  8.6900000e+000	  1.0644012e+004	
  8.7000000e+000	  1.2017950e+004	
  8.7100000e+000	  1.0526481e+004	
  8.7200000e+000	  1.0307042e+004	
  8.7300000e+000	  1.1838546e+004	
  8.7400000e+000	  1.0784025e+004	
  8.7500000e+000	  1.3032867e+004	
  8.7600000e+000	  1.2298458e+004	
  8.7700000e+000	  1.1489966e+004	
  8.7800000e+000	  1.1538682e+004	
  8.7900000e+000	  9.9412449e+003	
  8.8000000e+000	  1.1983395e+004	
  8.8100000e+000	  1.4232340e+004	
  8.8200000e+000	  1.2411066e+004	
  8.8300000e+000	  1.1133939e+004	
  8.8400000e+000	  1.2548194e+004	
  8.8500000e+000	  1.2997583e+004	
  8.8600000e+000	  1.1001531e+004	
  8.8700000e+000	  1.2906894e+004	
  8.8800000e+000	  1.3864193e+004	
  8.8900000e+000	  1.2720296e+004	
  8.9000000e+000	  1.2247920e+004	
  8.9100000e+000	  1.1590633e+004	
  8.9200000e+000	  1.2731752e+004	
  8.9300000e+000	  1.1707587e+004	
  8.9400000e+000	  1.2443504e+004	
  8.9500000e+000	  1.2416320e+004	
  8.9600000e+000	  1.2842965e+004	
  8.9700000e+000	  1.3413424e+004	
  8.9800000e+000	  1.2584455e+004	
  8.9900000e+000	  1.3133408e+004	
  9.0000000e+000	  1.1408214e+004	
  9.0100000e+000	  1.4182753e+004	
  9.0200000e+000	  1.2247645e+004	
  9.0300000e+000	  1.3017121e+004	
  9.0400000e+000	  1.3526708e+004	
  9.0500000e+000	  1.4310937e+004	
  9.0600000e+000	  1.2674413e+004	
  9.0700000e+000	  1.3561850e+004	
  9.0800000e+000	  1.3007057e+004	
  9.0900000e+000	  1.2567764e+004	
  9.1000000e+000	  1.3678657e+004	
  9.1100000e+000	  1.3604820e+004	
  9.1200000e+000	  1.3795245e+004	
  9.1300000e+000	  1.2866268e+004	
  9.1400000e+000	  1.3443257e+004	
  9.1500000e+000	  1.4352060e+004	
  9.1600000e+000	  1.4774819e+004	
  9.1700000e+000	  1.3871455e+004	
  9.1800000e+000	  1.6193787e+004	
  9.1900000e+000	  1.3249274e+004	
  9.2000000e+000	  1.2987215e+004	
  9.2100000e+000	  1.6025024e+004	
  9.2200000e+000	  1.3525433e+004	
  9.2300000e+000	  1.4326569e+004	
  9.2400000e+000	  1.3587197e+004	
  9.2500000e+000	  1.3468432e+004	
  9.2600000e+000	  1.3931830e+004	
  9.2700000e+000	  1.4606044e+004	
  9.2800000e+000	  1.4385017e+004	
  9.2900000e+000	  1.5764003e+004	
  9.3000000e+000	  1.4542536e+004	
  9.3100000e+000	  1.6294616e+004	
  9.3200000e+000	  1.4267769e+004	
  9.3300000e+000	  1.3595490e+004	
  9.3400000e+000	  1.5514992e+004	
  9.3500000e+000	  1.6605681e+004	
  9.3600000e+000	  1.5118119e+004	
  9.3700000e+000	  1.6651961e+004	
  9.3800000e+000	  1.5239058e+004	
  9.3900000e+000	  1.4915944e+004	
  9.4000000e+000	  1.4376568e+004	
  9.4100000e+000	  1.6752255e+004	
  9.4200000e+000	  1.4452491e+004	
  9.4300000e+000	  1.5489043e+004	
  9.4400000e+000	  1.5103169e+004	
  9.4500000e+000	  1.5176659e+004	
  9.4600000e+000	  1.5733807e+004	
  9.4700000e+000	  1.6228655e+004	
  9.4800000e+000	  1.6389413e+004	
  9.4900000e+000	  1.5377193e+004	
  9.5000000e+000	  1.6630917e+004	
  9.5100000e+000	  1.6873816e+004	
  9.5200000e+000	  1.6287500e+004	
  9.5300000e+000	  1.6269626e+004	
  9.5400000e+000	  1.5357007e+004	
  9.5500000e+000	  1.6946131e+004	
  9.5600000e+000	  1.8351736e+004	
  9.5700000e+000	  1.7524731e+004	
  9.5800000e+000	  1.6730817e+004	
  9.5900000e+000	  1.7492748e+004	
  9.6000000e+000	  1.7172027e+004	
  9.6100000e+000	  1.7630700e+004	
  9.6200000e+000	  1.7252199e+004	
  9.6300000e+000	  1.7209826e+004	
  9.6400000e+000	  1.8861652e+004	
  9.6500000e+000	  1.7466771e+004	
  9.6600000e+000	  1.8054019e+004	
  9.6700000e+000	  1.8265854e+004	
  9.6800000e+000	  1.8887237e+004	
  9.6900000e+000	  1.7477312e+004	
  9.7000000e+000	  1.8334331e+004	
  9.7100000e+000	  1.7844577e+004	
  9.7200000e+000	  1.7369380e+004	
  9.7300000e+000	  1.7823669e+004	
  9.7400000e+000	  1.8604054e+004	
  9.7500000e+000	  1.7326615e+004	
  9.7600000e+000	  1.9731294e+004	
  9.7700000e+000	  2.0106320e+004	
  9.7800000e+000	  1.7568196e+004	
  9.7900000e+000	  1.8025282e+004	
  9.8000000e+000	  1.8908983e+004	
  9.8100000e+000	  1.8925653e+004	
  9.8200000e+000	  1.9983402e+004	
  9.8300000e+000	  1.8602889e+004	
  9.8400000e+000	  2.0344624e+004	
  9.8500000e+000	  1.7991728e+004	
  9.8600000e+000	  1.8983649e+004	
  9.8700000e+000	  1.9303594e+004	
  9.8800000e+000	  1.8090247e+004	
  9.8900000e+000	  1.9193602e+004	
  9.9000000e+000	  1.8946746e+004	
  9.9100000e+000	  2.0147354e+004	
  9.9200000e+000	  1.9913325e+004	
  9.9300000e+000	  2.1299604e+004	
  9.9400000e+000	  2.0520399e+004	
  9.9500000e+000	  1.9705881e+004	
  9.9600000e+000	  1.7763533e+004	
  9.9700000e+000	  1.9630010e+004	
  9.9800000e+000	  1.9071848e+004	
  9.9900000e+000	  2.2310072e+004	
  1.0000000e+001	  2.0077246e+004	
